{"type": "Element::GetAttriubute", "PID": 9557, "docPrincipal": "https://www.mymove.com/app/sign-up", "3rdPrincipal": "https://code.jquery.com/jquery-3.3.1.min.js", "isInput": "yes", "attr": "id", "value": "30"}
{"type": "Element::GetAttriubute", "PID": 9557, "docPrincipal": "https://www.mymove.com/app/sign-up", "3rdPrincipal": "https://code.jquery.com/jquery-3.3.1.min.js", "isInput": "yes", "attr": "id", "value": "30"}
{"type": "Element::GetAttriubute", "PID": 9557, "docPrincipal": "https://www.mymove.com/app/sign-up", "3rdPrincipal": "https://code.jquery.com/jquery-3.3.1.min.js", "isInput": "yes", "attr": "id", "value": "30"}
{"type": "Element::GetAttriubute", "PID": 9557, "docPrincipal": "https://www.mymove.com/app/sign-up", "3rdPrincipal": "https://code.jquery.com/jquery-3.3.1.min.js", "isInput": "yes", "attr": "id", "value": "30"}
{"type": "Element::GetAttriubute", "PID": 9557, "docPrincipal": "https://www.mymove.com/app/sign-up", "3rdPrincipal": "https://code.jquery.com/jquery-3.3.1.min.js", "isInput": "yes", "attr": "id", "value": "30"}
{"type": "Element::GetAttriubute", "PID": 9634, "docPrincipal": "https://www.einhell.com/de/suchergebnisse.html?L=1&id=33&q=DataExStudy%40iseclab.org&submit=", "3rdPrincipal": "https://cdnjs.cloudflare.com/ajax/libs/jquery/3.2.1/jquery.min.js", "isInput": "yes", "attr": "value", "value": "DataExStudy@iseclab.org"}
{"type": "Element::GetAttriubute", "PID": 27012, "docPrincipal": "https://www.hubbell.com/hubbell/en/contactUs", "3rdPrincipal": "https://edge.fullstory.com/s/fs.js", "isInput": "yes", "attr": "data-parsley-maxlength", "value": "30"}
{"type": "Element::GetAttriubute", "PID": 27012, "docPrincipal": "https://www.hubbell.com/contactUs", "3rdPrincipal": "https://edge.fullstory.com/s/fs.js", "isInput": "yes", "attr": "data-parsley-maxlength", "value": "30"}
{"type": "Element::GetAttriubute", "PID": 27853, "docPrincipal": "https://ib.open.ru/webbank/", "3rdPrincipal": "https://mc.yandex.ru/metrika/tag.js", "isInput": "yes", "attr": "value", "value": "DataExStudy@iseclab.org"}
{"type": "Element::GetAttriubute", "PID": 27853, "docPrincipal": "https://ib.open.ru/webbank/", "3rdPrincipal": "https://mc.yandex.ru/metrika/tag.js", "isInput": "yes", "attr": "value", "value": "DataExStudy@iseclab.org"}
{"type": "Element::GetAttriubute", "PID": 27853, "docPrincipal": "https://ib.open.ru/webbank/", "3rdPrincipal": "https://mc.yandex.ru/metrika/tag.js", "isInput": "yes", "attr": "value", "value": "DataExStudy@iseclab.org"}
{"type": "Element::GetAttriubute", "PID": 27853, "docPrincipal": "https://ib.open.ru/webbank/", "3rdPrincipal": "https://mc.yandex.ru/metrika/tag.js", "isInput": "yes", "attr": "value", "value": "DataExStudy@iseclab.org"}
{"type": "Element::GetAttriubute", "PID": 27853, "docPrincipal": "https://ib.open.ru/webbank/", "3rdPrincipal": "https://mc.yandex.ru/metrika/tag.js", "isInput": "yes", "attr": "value", "value": "DataExStudy@iseclab.org"}
{"type": "Element::GetAttriubute", "PID": 27853, "docPrincipal": "https://ib.open.ru/webbank/", "3rdPrincipal": "https://mc.yandex.ru/metrika/tag.js", "isInput": "yes", "attr": "value", "value": "DataExStudy@iseclab.org"}
{"type": "Element::GetAttriubute", "PID": 27853, "docPrincipal": "https://ib.open.ru/webbank/", "3rdPrincipal": "https://mc.yandex.ru/metrika/tag.js", "isInput": "yes", "attr": "value", "value": "DataExStudy@iseclab.org"}
{"type": "Element::GetAttriubute", "PID": 27853, "docPrincipal": "https://ib.open.ru/webbank/", "3rdPrincipal": "https://mc.yandex.ru/metrika/tag.js", "isInput": "yes", "attr": "value", "value": "DataExStudy@iseclab.org"}
{"type": "Element::GetAttriubute", "PID": 27853, "docPrincipal": "https://ib.open.ru/webbank/", "3rdPrincipal": "https://mc.yandex.ru/metrika/tag.js", "isInput": "yes", "attr": "value", "value": "DataExStudy@iseclab.org"}
{"type": "Element::GetAttriubute", "PID": 27853, "docPrincipal": "https://ib.open.ru/webbank/", "3rdPrincipal": "https://mc.yandex.ru/metrika/tag.js", "isInput": "yes", "attr": "value", "value": "DataExStudy@iseclab.org"}
{"type": "Element::GetAttriubute", "PID": 27853, "docPrincipal": "https://ib.open.ru/webbank/", "3rdPrincipal": "https://mc.yandex.ru/metrika/tag.js", "isInput": "yes", "attr": "value", "value": "DataExStudy@iseclab.org"}
{"type": "Element::GetAttriubute", "PID": 27853, "docPrincipal": "https://ib.open.ru/webbank/", "3rdPrincipal": "https://mc.yandex.ru/metrika/tag.js", "isInput": "yes", "attr": "value", "value": "DataExStudy@iseclab.org"}
{"type": "Element::GetAttriubute", "PID": 27853, "docPrincipal": "https://ib.open.ru/webbank/", "3rdPrincipal": "https://mc.yandex.ru/metrika/tag.js", "isInput": "yes", "attr": "value", "value": "DataExStudy@iseclab.org"}
{"type": "Element::GetAttriubute", "PID": 27853, "docPrincipal": "https://ib.open.ru/webbank/", "3rdPrincipal": "https://mc.yandex.ru/metrika/tag.js", "isInput": "yes", "attr": "value", "value": "DataExStudy@iseclab.org"}
{"type": "Element::GetAttriubute", "PID": 27853, "docPrincipal": "https://ib.open.ru/webbank/", "3rdPrincipal": "https://mc.yandex.ru/metrika/tag.js", "isInput": "yes", "attr": "value", "value": "DataExStudy@iseclab.org"}
{"type": "Element::GetAttriubute", "PID": 27853, "docPrincipal": "https://ib.open.ru/webbank/", "3rdPrincipal": "https://mc.yandex.ru/metrika/tag.js", "isInput": "yes", "attr": "value", "value": "DataExStudy@iseclab.org"}
{"type": "Element::GetAttriubute", "PID": 27853, "docPrincipal": "https://ib.open.ru/webbank/", "3rdPrincipal": "https://mc.yandex.ru/metrika/tag.js", "isInput": "yes", "attr": "value", "value": "DataExStudy@iseclab.org"}
{"type": "Element::GetAttriubute", "PID": 27853, "docPrincipal": "https://ib.open.ru/webbank/", "3rdPrincipal": "https://mc.yandex.ru/metrika/tag.js", "isInput": "yes", "attr": "value", "value": "DataExStudy@iseclab.org"}
{"type": "Element::GetAttriubute", "PID": 27853, "docPrincipal": "https://ib.open.ru/webbank/", "3rdPrincipal": "https://mc.yandex.ru/metrika/tag.js", "isInput": "yes", "attr": "value", "value": "DataExStudy@iseclab.org"}
{"type": "Element::GetAttriubute", "PID": 27853, "docPrincipal": "https://ib.open.ru/webbank/", "3rdPrincipal": "https://mc.yandex.ru/metrika/tag.js", "isInput": "yes", "attr": "value", "value": "DataExStudy@iseclab.org"}
{"type": "Element::GetAttriubute", "PID": 27853, "docPrincipal": "https://ib.open.ru/webbank/", "3rdPrincipal": "https://mc.yandex.ru/metrika/tag.js", "isInput": "yes", "attr": "value", "value": "DataExStudy@iseclab.org"}
{"type": "Element::GetAttriubute", "PID": 27853, "docPrincipal": "https://ib.open.ru/webbank/", "3rdPrincipal": "https://mc.yandex.ru/metrika/tag.js", "isInput": "yes", "attr": "value", "value": "DataExStudy@iseclab.org"}
{"type": "Element::GetAttriubute", "PID": 27853, "docPrincipal": "https://ib.open.ru/webbank/", "3rdPrincipal": "https://mc.yandex.ru/metrika/tag.js", "isInput": "yes", "attr": "value", "value": "DataExStudy@iseclab.org"}
{"type": "Element::GetAttriubute", "PID": 27853, "docPrincipal": "https://ib.open.ru/webbank/", "3rdPrincipal": "https://mc.yandex.ru/metrika/tag.js", "isInput": "yes", "attr": "value", "value": "p@55w0Rd99"}
{"type": "Element::GetAttriubute", "PID": 27853, "docPrincipal": "https://ib.open.ru/webbank/", "3rdPrincipal": "https://mc.yandex.ru/metrika/tag.js", "isInput": "yes", "attr": "value", "value": "p@55w0Rd99"}
{"type": "Element::GetAttriubute", "PID": 27853, "docPrincipal": "https://ib.open.ru/webbank/", "3rdPrincipal": "https://mc.yandex.ru/metrika/tag.js", "isInput": "yes", "attr": "value", "value": "p@55w0Rd99"}
{"type": "Element::GetAttriubute", "PID": 27853, "docPrincipal": "https://ib.open.ru/webbank/", "3rdPrincipal": "https://mc.yandex.ru/metrika/tag.js", "isInput": "yes", "attr": "value", "value": "p@55w0Rd99"}
{"type": "Element::GetAttriubute", "PID": 27853, "docPrincipal": "https://ib.open.ru/webbank/", "3rdPrincipal": "https://mc.yandex.ru/metrika/tag.js", "isInput": "yes", "attr": "value", "value": "p@55w0Rd99"}
{"type": "Element::GetAttriubute", "PID": 27853, "docPrincipal": "https://ib.open.ru/webbank/", "3rdPrincipal": "https://mc.yandex.ru/metrika/tag.js", "isInput": "yes", "attr": "value", "value": "p@55w0Rd99"}
{"type": "Element::GetAttriubute", "PID": 27853, "docPrincipal": "https://ib.open.ru/webbank/", "3rdPrincipal": "https://mc.yandex.ru/metrika/tag.js", "isInput": "yes", "attr": "value", "value": "p@55w0Rd99"}
{"type": "Element::GetAttriubute", "PID": 27853, "docPrincipal": "https://ib.open.ru/webbank/", "3rdPrincipal": "https://mc.yandex.ru/metrika/tag.js", "isInput": "yes", "attr": "value", "value": "p@55w0Rd99"}
{"type": "Element::GetAttriubute", "PID": 27853, "docPrincipal": "https://ib.open.ru/webbank/", "3rdPrincipal": "https://mc.yandex.ru/metrika/tag.js", "isInput": "yes", "attr": "value", "value": "p@55w0Rd99"}
{"type": "Element::GetAttriubute", "PID": 27853, "docPrincipal": "https://ib.open.ru/webbank/", "3rdPrincipal": "https://mc.yandex.ru/metrika/tag.js", "isInput": "yes", "attr": "value", "value": "p@55w0Rd99"}
{"type": "Element::GetAttriubute", "PID": 21522, "docPrincipal": "https://app.rangeme.com/suppliers/signup?default_locale_region=us", "3rdPrincipal": "https://edge.fullstory.com/s/fs.js", "isInput": "yes", "attr": "value", "value": "Jane"}
{"type": "Element::GetAttriubute", "PID": 21522, "docPrincipal": "https://app.rangeme.com/suppliers/signup?default_locale_region=us", "3rdPrincipal": "https://edge.fullstory.com/s/fs.js", "isInput": "yes", "attr": "value", "value": "Jane"}
{"type": "Element::GetAttriubute", "PID": 21522, "docPrincipal": "https://app.rangeme.com/suppliers/signup?default_locale_region=us", "3rdPrincipal": "https://edge.fullstory.com/s/fs.js", "isInput": "yes", "attr": "value", "value": "Jane"}
{"type": "Element::GetAttriubute", "PID": 21522, "docPrincipal": "https://app.rangeme.com/suppliers/signup?default_locale_region=us", "3rdPrincipal": "https://edge.fullstory.com/s/fs.js", "isInput": "yes", "attr": "value", "value": "Jane"}
{"type": "Element::GetAttriubute", "PID": 21522, "docPrincipal": "https://app.rangeme.com/suppliers/signup?default_locale_region=us", "3rdPrincipal": "https://edge.fullstory.com/s/fs.js", "isInput": "yes", "attr": "value", "value": "Doe"}
{"type": "Element::GetAttriubute", "PID": 21522, "docPrincipal": "https://app.rangeme.com/suppliers/signup?default_locale_region=us", "3rdPrincipal": "https://edge.fullstory.com/s/fs.js", "isInput": "yes", "attr": "value", "value": "Doe"}
{"type": "Element::GetAttriubute", "PID": 21522, "docPrincipal": "https://app.rangeme.com/suppliers/signup?default_locale_region=us", "3rdPrincipal": "https://edge.fullstory.com/s/fs.js", "isInput": "yes", "attr": "value", "value": "Doe"}
{"type": "Element::GetAttriubute", "PID": 21522, "docPrincipal": "https://app.rangeme.com/suppliers/signup?default_locale_region=us", "3rdPrincipal": "https://edge.fullstory.com/s/fs.js", "isInput": "yes", "attr": "value", "value": "DataExStudy@iseclab.org"}
{"type": "Element::GetAttriubute", "PID": 21522, "docPrincipal": "https://app.rangeme.com/suppliers/signup?default_locale_region=us", "3rdPrincipal": "https://edge.fullstory.com/s/fs.js", "isInput": "yes", "attr": "value", "value": "DataExStudy@iseclab.org"}
{"type": "Element::GetAttriubute", "PID": 21522, "docPrincipal": "https://app.rangeme.com/suppliers/signup?default_locale_region=us", "3rdPrincipal": "https://edge.fullstory.com/s/fs.js", "isInput": "yes", "attr": "value", "value": "DataExStudy@iseclab.org"}
{"type": "Element::GetAttriubute", "PID": 21522, "docPrincipal": "https://app.rangeme.com/suppliers/signup?default_locale_region=us", "3rdPrincipal": "https://edge.fullstory.com/s/fs.js", "isInput": "yes", "attr": "value", "value": "DataExStudy@iseclab.org"}
{"type": "Element::GetAttriubute", "PID": 21522, "docPrincipal": "https://app.rangeme.com/suppliers/signup?default_locale_region=us", "3rdPrincipal": "https://edge.fullstory.com/s/fs.js", "isInput": "yes", "attr": "value", "value": "DataExStudy@iseclab.org"}
{"type": "Element::GetAttriubute", "PID": 21522, "docPrincipal": "https://app.rangeme.com/suppliers/signup?default_locale_region=us", "3rdPrincipal": "https://edge.fullstory.com/s/fs.js", "isInput": "yes", "attr": "value", "value": "DataExStudy@iseclab.org"}
{"type": "Element::GetAttriubute", "PID": 21522, "docPrincipal": "https://app.rangeme.com/suppliers/signup?default_locale_region=us", "3rdPrincipal": "https://edge.fullstory.com/s/fs.js", "isInput": "yes", "attr": "value", "value": "DataExStudy@iseclab.org"}
{"type": "Element::GetAttriubute", "PID": 21522, "docPrincipal": "https://app.rangeme.com/suppliers/signup?default_locale_region=us", "3rdPrincipal": "https://edge.fullstory.com/s/fs.js", "isInput": "yes", "attr": "value", "value": "DataExStudy@iseclab.org"}
{"type": "Element::GetAttriubute", "PID": 21522, "docPrincipal": "https://app.rangeme.com/suppliers/signup?default_locale_region=us", "3rdPrincipal": "https://edge.fullstory.com/s/fs.js", "isInput": "yes", "attr": "value", "value": "DataExStudy@iseclab.org"}
{"type": "Element::GetAttriubute", "PID": 21522, "docPrincipal": "https://app.rangeme.com/suppliers/signup?default_locale_region=us", "3rdPrincipal": "https://edge.fullstory.com/s/fs.js", "isInput": "yes", "attr": "value", "value": "DataExStudy@iseclab.org"}
{"type": "Element::GetAttriubute", "PID": 21522, "docPrincipal": "https://app.rangeme.com/suppliers/signup?default_locale_region=us", "3rdPrincipal": "https://edge.fullstory.com/s/fs.js", "isInput": "yes", "attr": "value", "value": "DataExStudy@iseclab.org"}
{"type": "Element::GetAttriubute", "PID": 21522, "docPrincipal": "https://app.rangeme.com/suppliers/signup?default_locale_region=us", "3rdPrincipal": "https://edge.fullstory.com/s/fs.js", "isInput": "yes", "attr": "value", "value": "DataExStudy@iseclab.org"}
{"type": "Element::GetAttriubute", "PID": 21522, "docPrincipal": "https://app.rangeme.com/suppliers/signup?default_locale_region=us", "3rdPrincipal": "https://edge.fullstory.com/s/fs.js", "isInput": "yes", "attr": "value", "value": "DataExStudy@iseclab.org"}
{"type": "Element::GetAttriubute", "PID": 21522, "docPrincipal": "https://app.rangeme.com/suppliers/signup?default_locale_region=us", "3rdPrincipal": "https://edge.fullstory.com/s/fs.js", "isInput": "yes", "attr": "value", "value": "DataExStudy@iseclab.org"}
{"type": "Element::GetAttriubute", "PID": 21522, "docPrincipal": "https://app.rangeme.com/suppliers/signup?default_locale_region=us", "3rdPrincipal": "https://edge.fullstory.com/s/fs.js", "isInput": "yes", "attr": "value", "value": "DataExStudy@iseclab.org"}
{"type": "Element::GetAttriubute", "PID": 21522, "docPrincipal": "https://app.rangeme.com/suppliers/signup?default_locale_region=us", "3rdPrincipal": "https://edge.fullstory.com/s/fs.js", "isInput": "yes", "attr": "value", "value": "DataExStudy@iseclab.org"}
{"type": "Element::GetAttriubute", "PID": 21522, "docPrincipal": "https://app.rangeme.com/suppliers/signup?default_locale_region=us", "3rdPrincipal": "https://edge.fullstory.com/s/fs.js", "isInput": "yes", "attr": "value", "value": "DataExStudy@iseclab.org"}
{"type": "Element::GetAttriubute", "PID": 21522, "docPrincipal": "https://app.rangeme.com/suppliers/signup?default_locale_region=us", "3rdPrincipal": "https://edge.fullstory.com/s/fs.js", "isInput": "yes", "attr": "value", "value": "DataExStudy@iseclab.org"}
{"type": "Element::GetAttriubute", "PID": 21522, "docPrincipal": "https://app.rangeme.com/suppliers/signup?default_locale_region=us", "3rdPrincipal": "https://edge.fullstory.com/s/fs.js", "isInput": "yes", "attr": "value", "value": "DataExStudy@iseclab.org"}
{"type": "Element::GetAttriubute", "PID": 21522, "docPrincipal": "https://app.rangeme.com/suppliers/signup?default_locale_region=us", "3rdPrincipal": "https://edge.fullstory.com/s/fs.js", "isInput": "yes", "attr": "value", "value": "DataExStudy@iseclab.org"}
{"type": "Element::GetAttriubute", "PID": 21522, "docPrincipal": "https://app.rangeme.com/suppliers/signup?default_locale_region=us", "3rdPrincipal": "https://edge.fullstory.com/s/fs.js", "isInput": "yes", "attr": "value", "value": "DataExStudy@iseclab.org"}
{"type": "Element::GetAttriubute", "PID": 21522, "docPrincipal": "https://app.rangeme.com/suppliers/signup?default_locale_region=us", "3rdPrincipal": "https://edge.fullstory.com/s/fs.js", "isInput": "yes", "attr": "value", "value": "DataExStudy@iseclab.org"}
{"type": "Element::GetAttriubute", "PID": 21522, "docPrincipal": "https://app.rangeme.com/suppliers/signup?default_locale_region=us", "3rdPrincipal": "https://edge.fullstory.com/s/fs.js", "isInput": "yes", "attr": "value", "value": "DataExStudy@iseclab.org"}
{"type": "Element::GetAttriubute", "PID": 21522, "docPrincipal": "https://app.rangeme.com/suppliers/signup?default_locale_region=us", "3rdPrincipal": "https://edge.fullstory.com/s/fs.js", "isInput": "yes", "attr": "value", "value": "p@55w0Rd99"}
{"type": "Element::GetAttriubute", "PID": 21522, "docPrincipal": "https://app.rangeme.com/suppliers/signup?default_locale_region=us", "3rdPrincipal": "https://edge.fullstory.com/s/fs.js", "isInput": "yes", "attr": "value", "value": "p@55w0Rd99"}
{"type": "Element::GetAttriubute", "PID": 21522, "docPrincipal": "https://app.rangeme.com/suppliers/signup?default_locale_region=us", "3rdPrincipal": "https://edge.fullstory.com/s/fs.js", "isInput": "yes", "attr": "value", "value": "p@55w0Rd99"}
{"type": "Element::GetAttriubute", "PID": 21522, "docPrincipal": "https://app.rangeme.com/suppliers/signup?default_locale_region=us", "3rdPrincipal": "https://edge.fullstory.com/s/fs.js", "isInput": "yes", "attr": "value", "value": "p@55w0Rd99"}
{"type": "Element::GetAttriubute", "PID": 21522, "docPrincipal": "https://app.rangeme.com/suppliers/signup?default_locale_region=us", "3rdPrincipal": "https://edge.fullstory.com/s/fs.js", "isInput": "yes", "attr": "value", "value": "p@55w0Rd99"}
{"type": "Element::GetAttriubute", "PID": 21522, "docPrincipal": "https://app.rangeme.com/suppliers/signup?default_locale_region=us", "3rdPrincipal": "https://edge.fullstory.com/s/fs.js", "isInput": "yes", "attr": "value", "value": "p@55w0Rd99"}
{"type": "Element::GetAttriubute", "PID": 21522, "docPrincipal": "https://app.rangeme.com/suppliers/signup?default_locale_region=us", "3rdPrincipal": "https://edge.fullstory.com/s/fs.js", "isInput": "yes", "attr": "value", "value": "p@55w0Rd99"}
{"type": "Element::GetAttriubute", "PID": 21522, "docPrincipal": "https://app.rangeme.com/suppliers/signup?default_locale_region=us", "3rdPrincipal": "https://edge.fullstory.com/s/fs.js", "isInput": "yes", "attr": "value", "value": "p@55w0Rd99"}
{"type": "Element::GetAttriubute", "PID": 21522, "docPrincipal": "https://app.rangeme.com/suppliers/signup?default_locale_region=us", "3rdPrincipal": "https://edge.fullstory.com/s/fs.js", "isInput": "yes", "attr": "value", "value": "p@55w0Rd99"}
{"type": "Element::GetAttriubute", "PID": 21522, "docPrincipal": "https://app.rangeme.com/suppliers/signup?default_locale_region=us", "3rdPrincipal": "https://edge.fullstory.com/s/fs.js", "isInput": "yes", "attr": "value", "value": "p@55w0Rd99"}
{"type": "Element::GetAttriubute", "PID": 21522, "docPrincipal": "https://app.rangeme.com/suppliers/signup?default_locale_region=us", "3rdPrincipal": "https://edge.fullstory.com/s/fs.js", "isInput": "yes", "attr": "value", "value": "617 555 1234"}
{"type": "Element::GetAttriubute", "PID": 21522, "docPrincipal": "https://app.rangeme.com/suppliers/signup?default_locale_region=us", "3rdPrincipal": "https://edge.fullstory.com/s/fs.js", "isInput": "yes", "attr": "value", "value": "617 555 1234"}
{"type": "Element::GetAttriubute", "PID": 21522, "docPrincipal": "https://app.rangeme.com/suppliers/signup?default_locale_region=us", "3rdPrincipal": "https://edge.fullstory.com/s/fs.js", "isInput": "yes", "attr": "value", "value": "617 555 1234"}
{"type": "Element::GetAttriubute", "PID": 21522, "docPrincipal": "https://app.rangeme.com/suppliers/signup?default_locale_region=us", "3rdPrincipal": "https://edge.fullstory.com/s/fs.js", "isInput": "yes", "attr": "value", "value": "617 555 1234"}
{"type": "Element::GetAttriubute", "PID": 21522, "docPrincipal": "https://app.rangeme.com/suppliers/signup?default_locale_region=us", "3rdPrincipal": "https://edge.fullstory.com/s/fs.js", "isInput": "yes", "attr": "value", "value": "617 555 1234"}
{"type": "Element::GetAttriubute", "PID": 21522, "docPrincipal": "https://app.rangeme.com/suppliers/signup?default_locale_region=us", "3rdPrincipal": "https://edge.fullstory.com/s/fs.js", "isInput": "yes", "attr": "value", "value": "617 555 1234"}
{"type": "Element::GetAttriubute", "PID": 21522, "docPrincipal": "https://app.rangeme.com/suppliers/signup?default_locale_region=us", "3rdPrincipal": "https://edge.fullstory.com/s/fs.js", "isInput": "yes", "attr": "value", "value": "617 555 1234"}
{"type": "Element::GetAttriubute", "PID": 21522, "docPrincipal": "https://app.rangeme.com/suppliers/signup?default_locale_region=us", "3rdPrincipal": "https://edge.fullstory.com/s/fs.js", "isInput": "yes", "attr": "value", "value": "617 555 1234"}
{"type": "Element::GetAttriubute", "PID": 21522, "docPrincipal": "https://app.rangeme.com/suppliers/signup?default_locale_region=us", "3rdPrincipal": "https://edge.fullstory.com/s/fs.js", "isInput": "yes", "attr": "value", "value": "617 555 1234"}
{"type": "Element::GetAttriubute", "PID": 21522, "docPrincipal": "https://app.rangeme.com/suppliers/signup?default_locale_region=us", "3rdPrincipal": "https://edge.fullstory.com/s/fs.js", "isInput": "yes", "attr": "value", "value": "617 555 1234"}
{"type": "Element::GetAttriubute", "PID": 21522, "docPrincipal": "https://app.rangeme.com/suppliers/signup?default_locale_region=us", "3rdPrincipal": "https://edge.fullstory.com/s/fs.js", "isInput": "yes", "attr": "value", "value": "617 555 1234"}
{"type": "Element::GetAttriubute", "PID": 21522, "docPrincipal": "https://app.rangeme.com/suppliers/signup?default_locale_region=us", "3rdPrincipal": "https://edge.fullstory.com/s/fs.js", "isInput": "yes", "attr": "value", "value": "617 555 1234"}
{"type": "Element::GetAttriubute", "PID": 21522, "docPrincipal": "https://app.rangeme.com/suppliers/signup?default_locale_region=us", "3rdPrincipal": "https://edge.fullstory.com/s/fs.js", "isInput": "yes", "attr": "value", "value": "Doe & Data"}
{"type": "Element::GetAttriubute", "PID": 21522, "docPrincipal": "https://app.rangeme.com/suppliers/signup?default_locale_region=us", "3rdPrincipal": "https://edge.fullstory.com/s/fs.js", "isInput": "yes", "attr": "value", "value": "Doe & Data"}
{"type": "Element::GetAttriubute", "PID": 21522, "docPrincipal": "https://app.rangeme.com/suppliers/signup?default_locale_region=us", "3rdPrincipal": "https://edge.fullstory.com/s/fs.js", "isInput": "yes", "attr": "value", "value": "Doe & Data"}
{"type": "Element::GetAttriubute", "PID": 21522, "docPrincipal": "https://app.rangeme.com/suppliers/signup?default_locale_region=us", "3rdPrincipal": "https://edge.fullstory.com/s/fs.js", "isInput": "yes", "attr": "value", "value": "Doe & Data"}
{"type": "Element::GetAttriubute", "PID": 21522, "docPrincipal": "https://app.rangeme.com/suppliers/signup?default_locale_region=us", "3rdPrincipal": "https://edge.fullstory.com/s/fs.js", "isInput": "yes", "attr": "value", "value": "Doe & Data"}
{"type": "Element::GetAttriubute", "PID": 21522, "docPrincipal": "https://app.rangeme.com/suppliers/signup?default_locale_region=us", "3rdPrincipal": "https://edge.fullstory.com/s/fs.js", "isInput": "yes", "attr": "value", "value": "Doe & Data"}
{"type": "Element::GetAttriubute", "PID": 21522, "docPrincipal": "https://app.rangeme.com/suppliers/signup?default_locale_region=us", "3rdPrincipal": "https://edge.fullstory.com/s/fs.js", "isInput": "yes", "attr": "value", "value": "Doe & Data"}
{"type": "Element::GetAttriubute", "PID": 21522, "docPrincipal": "https://app.rangeme.com/suppliers/signup?default_locale_region=us", "3rdPrincipal": "https://edge.fullstory.com/s/fs.js", "isInput": "yes", "attr": "value", "value": "Doe & Data"}
{"type": "Element::GetAttriubute", "PID": 21522, "docPrincipal": "https://app.rangeme.com/suppliers/signup?default_locale_region=us", "3rdPrincipal": "https://edge.fullstory.com/s/fs.js", "isInput": "yes", "attr": "value", "value": "Doe & Data"}
{"type": "Element::GetAttriubute", "PID": 21522, "docPrincipal": "https://app.rangeme.com/suppliers/signup?default_locale_region=us", "3rdPrincipal": "https://edge.fullstory.com/s/fs.js", "isInput": "yes", "attr": "value", "value": "Doe & Data"}
{"type": "Element::GetAttriubute", "PID": 1237, "docPrincipal": "https://taplytics.com/login", "3rdPrincipal": "https://www.fullstory.com/s/fs.js", "isInput": "yes", "attr": "value", "value": "DataExStudy@iseclab.org"}
{"type": "Element::GetAttriubute", "PID": 1237, "docPrincipal": "https://taplytics.com/login", "3rdPrincipal": "https://www.fullstory.com/s/fs.js", "isInput": "yes", "attr": "value", "value": "DataExStudy@iseclab.org"}
{"type": "Element::GetAttriubute", "PID": 1237, "docPrincipal": "https://taplytics.com/login", "3rdPrincipal": "https://www.fullstory.com/s/fs.js", "isInput": "yes", "attr": "value", "value": "DataExStudy@iseclab.org"}
{"type": "Element::GetAttriubute", "PID": 1237, "docPrincipal": "https://taplytics.com/login", "3rdPrincipal": "https://www.fullstory.com/s/fs.js", "isInput": "yes", "attr": "value", "value": "DataExStudy@iseclab.org"}
{"type": "Element::GetAttriubute", "PID": 1237, "docPrincipal": "https://taplytics.com/login", "3rdPrincipal": "https://www.fullstory.com/s/fs.js", "isInput": "yes", "attr": "value", "value": "DataExStudy@iseclab.org"}
{"type": "Element::GetAttriubute", "PID": 1237, "docPrincipal": "https://taplytics.com/login", "3rdPrincipal": "https://www.fullstory.com/s/fs.js", "isInput": "yes", "attr": "value", "value": "DataExStudy@iseclab.org"}
{"type": "Element::GetAttriubute", "PID": 1237, "docPrincipal": "https://taplytics.com/login", "3rdPrincipal": "https://www.fullstory.com/s/fs.js", "isInput": "yes", "attr": "value", "value": "DataExStudy@iseclab.org"}
{"type": "Element::GetAttriubute", "PID": 1237, "docPrincipal": "https://taplytics.com/login", "3rdPrincipal": "https://www.fullstory.com/s/fs.js", "isInput": "yes", "attr": "value", "value": "DataExStudy@iseclab.org"}
{"type": "Element::GetAttriubute", "PID": 1237, "docPrincipal": "https://taplytics.com/login", "3rdPrincipal": "https://www.fullstory.com/s/fs.js", "isInput": "yes", "attr": "value", "value": "DataExStudy@iseclab.org"}
{"type": "Element::GetAttriubute", "PID": 1237, "docPrincipal": "https://taplytics.com/login", "3rdPrincipal": "https://www.fullstory.com/s/fs.js", "isInput": "yes", "attr": "value", "value": "DataExStudy@iseclab.org"}
{"type": "Element::GetAttriubute", "PID": 1237, "docPrincipal": "https://taplytics.com/login", "3rdPrincipal": "https://www.fullstory.com/s/fs.js", "isInput": "yes", "attr": "value", "value": "DataExStudy@iseclab.org"}
{"type": "Element::GetAttriubute", "PID": 1237, "docPrincipal": "https://taplytics.com/login", "3rdPrincipal": "https://www.fullstory.com/s/fs.js", "isInput": "yes", "attr": "value", "value": "DataExStudy@iseclab.org"}
{"type": "Element::GetAttriubute", "PID": 1237, "docPrincipal": "https://taplytics.com/login", "3rdPrincipal": "https://www.fullstory.com/s/fs.js", "isInput": "yes", "attr": "value", "value": "DataExStudy@iseclab.org"}
{"type": "Element::GetAttriubute", "PID": 1237, "docPrincipal": "https://taplytics.com/login", "3rdPrincipal": "https://www.fullstory.com/s/fs.js", "isInput": "yes", "attr": "value", "value": "DataExStudy@iseclab.org"}
{"type": "Element::GetAttriubute", "PID": 1237, "docPrincipal": "https://taplytics.com/login", "3rdPrincipal": "https://www.fullstory.com/s/fs.js", "isInput": "yes", "attr": "value", "value": "DataExStudy@iseclab.org"}
{"type": "Element::GetAttriubute", "PID": 1237, "docPrincipal": "https://taplytics.com/login", "3rdPrincipal": "https://www.fullstory.com/s/fs.js", "isInput": "yes", "attr": "value", "value": "DataExStudy@iseclab.org"}
{"type": "Element::GetAttriubute", "PID": 1237, "docPrincipal": "https://taplytics.com/login", "3rdPrincipal": "https://www.fullstory.com/s/fs.js", "isInput": "yes", "attr": "value", "value": "DataExStudy@iseclab.org"}
{"type": "Element::GetAttriubute", "PID": 1237, "docPrincipal": "https://taplytics.com/login", "3rdPrincipal": "https://www.fullstory.com/s/fs.js", "isInput": "yes", "attr": "value", "value": "DataExStudy@iseclab.org"}
{"type": "Element::GetAttriubute", "PID": 1237, "docPrincipal": "https://taplytics.com/login", "3rdPrincipal": "https://www.fullstory.com/s/fs.js", "isInput": "yes", "attr": "value", "value": "DataExStudy@iseclab.org"}
{"type": "Element::GetAttriubute", "PID": 1237, "docPrincipal": "https://taplytics.com/login", "3rdPrincipal": "https://www.fullstory.com/s/fs.js", "isInput": "yes", "attr": "value", "value": "DataExStudy@iseclab.org"}
{"type": "Element::GetAttriubute", "PID": 1237, "docPrincipal": "https://taplytics.com/login", "3rdPrincipal": "https://www.fullstory.com/s/fs.js", "isInput": "yes", "attr": "value", "value": "DataExStudy@iseclab.org"}
{"type": "Element::GetAttriubute", "PID": 1237, "docPrincipal": "https://taplytics.com/login", "3rdPrincipal": "https://www.fullstory.com/s/fs.js", "isInput": "yes", "attr": "value", "value": "DataExStudy@iseclab.org"}
{"type": "Element::GetAttriubute", "PID": 1237, "docPrincipal": "https://taplytics.com/login", "3rdPrincipal": "https://www.fullstory.com/s/fs.js", "isInput": "yes", "attr": "value", "value": "DataExStudy@iseclab.org"}
{"type": "Element::GetAttriubute", "PID": 1237, "docPrincipal": "https://taplytics.com/login", "3rdPrincipal": "https://www.fullstory.com/s/fs.js", "isInput": "yes", "attr": "value", "value": "p@55w0Rd99"}
{"type": "Element::GetAttriubute", "PID": 1237, "docPrincipal": "https://taplytics.com/login", "3rdPrincipal": "https://www.fullstory.com/s/fs.js", "isInput": "yes", "attr": "value", "value": "p@55w0Rd99"}
{"type": "Element::GetAttriubute", "PID": 1237, "docPrincipal": "https://taplytics.com/login", "3rdPrincipal": "https://www.fullstory.com/s/fs.js", "isInput": "yes", "attr": "value", "value": "p@55w0Rd99"}
{"type": "Element::GetAttriubute", "PID": 1237, "docPrincipal": "https://taplytics.com/login", "3rdPrincipal": "https://www.fullstory.com/s/fs.js", "isInput": "yes", "attr": "value", "value": "p@55w0Rd99"}
{"type": "Element::GetAttriubute", "PID": 1237, "docPrincipal": "https://taplytics.com/login", "3rdPrincipal": "https://www.fullstory.com/s/fs.js", "isInput": "yes", "attr": "value", "value": "p@55w0Rd99"}
{"type": "Element::GetAttriubute", "PID": 1237, "docPrincipal": "https://taplytics.com/login", "3rdPrincipal": "https://www.fullstory.com/s/fs.js", "isInput": "yes", "attr": "value", "value": "p@55w0Rd99"}
{"type": "Element::GetAttriubute", "PID": 1237, "docPrincipal": "https://taplytics.com/login", "3rdPrincipal": "https://www.fullstory.com/s/fs.js", "isInput": "yes", "attr": "value", "value": "p@55w0Rd99"}
{"type": "Element::GetAttriubute", "PID": 1237, "docPrincipal": "https://taplytics.com/login", "3rdPrincipal": "https://www.fullstory.com/s/fs.js", "isInput": "yes", "attr": "value", "value": "p@55w0Rd99"}
{"type": "Element::GetAttriubute", "PID": 1237, "docPrincipal": "https://taplytics.com/login", "3rdPrincipal": "https://www.fullstory.com/s/fs.js", "isInput": "yes", "attr": "value", "value": "p@55w0Rd99"}
{"type": "Element::GetAttriubute", "PID": 1237, "docPrincipal": "https://taplytics.com/login", "3rdPrincipal": "https://www.fullstory.com/s/fs.js", "isInput": "yes", "attr": "value", "value": "p@55w0Rd99"}
{"type": "Element::GetAttriubute", "PID": 19416, "docPrincipal": "https://app.interceptd.com/", "3rdPrincipal": "https://fullstory.com/s/fs.js", "isInput": "yes", "attr": "value", "value": "DataExStudy@iseclab.org"}
{"type": "Element::GetAttriubute", "PID": 19416, "docPrincipal": "https://app.interceptd.com/", "3rdPrincipal": "https://fullstory.com/s/fs.js", "isInput": "yes", "attr": "value", "value": "DataExStudy@iseclab.org"}
{"type": "Element::GetAttriubute", "PID": 19416, "docPrincipal": "https://app.interceptd.com/", "3rdPrincipal": "https://fullstory.com/s/fs.js", "isInput": "yes", "attr": "value", "value": "DataExStudy@iseclab.org"}
{"type": "Element::GetAttriubute", "PID": 19416, "docPrincipal": "https://app.interceptd.com/", "3rdPrincipal": "https://fullstory.com/s/fs.js", "isInput": "yes", "attr": "value", "value": "DataExStudy@iseclab.org"}
{"type": "Element::GetAttriubute", "PID": 19416, "docPrincipal": "https://app.interceptd.com/", "3rdPrincipal": "https://fullstory.com/s/fs.js", "isInput": "yes", "attr": "value", "value": "DataExStudy@iseclab.org"}
{"type": "Element::GetAttriubute", "PID": 19416, "docPrincipal": "https://app.interceptd.com/", "3rdPrincipal": "https://fullstory.com/s/fs.js", "isInput": "yes", "attr": "value", "value": "DataExStudy@iseclab.org"}
{"type": "Element::GetAttriubute", "PID": 19416, "docPrincipal": "https://app.interceptd.com/", "3rdPrincipal": "https://fullstory.com/s/fs.js", "isInput": "yes", "attr": "value", "value": "DataExStudy@iseclab.org"}
{"type": "Element::GetAttriubute", "PID": 19416, "docPrincipal": "https://app.interceptd.com/", "3rdPrincipal": "https://fullstory.com/s/fs.js", "isInput": "yes", "attr": "value", "value": "DataExStudy@iseclab.org"}
{"type": "Element::GetAttriubute", "PID": 19416, "docPrincipal": "https://app.interceptd.com/", "3rdPrincipal": "https://fullstory.com/s/fs.js", "isInput": "yes", "attr": "value", "value": "DataExStudy@iseclab.org"}
{"type": "Element::GetAttriubute", "PID": 19416, "docPrincipal": "https://app.interceptd.com/", "3rdPrincipal": "https://fullstory.com/s/fs.js", "isInput": "yes", "attr": "value", "value": "DataExStudy@iseclab.org"}
{"type": "Element::GetAttriubute", "PID": 19416, "docPrincipal": "https://app.interceptd.com/", "3rdPrincipal": "https://fullstory.com/s/fs.js", "isInput": "yes", "attr": "value", "value": "DataExStudy@iseclab.org"}
{"type": "Element::GetAttriubute", "PID": 19416, "docPrincipal": "https://app.interceptd.com/", "3rdPrincipal": "https://fullstory.com/s/fs.js", "isInput": "yes", "attr": "value", "value": "DataExStudy@iseclab.org"}
{"type": "Element::GetAttriubute", "PID": 19416, "docPrincipal": "https://app.interceptd.com/", "3rdPrincipal": "https://fullstory.com/s/fs.js", "isInput": "yes", "attr": "value", "value": "DataExStudy@iseclab.org"}
{"type": "Element::GetAttriubute", "PID": 19416, "docPrincipal": "https://app.interceptd.com/", "3rdPrincipal": "https://fullstory.com/s/fs.js", "isInput": "yes", "attr": "value", "value": "DataExStudy@iseclab.org"}
{"type": "Element::GetAttriubute", "PID": 19416, "docPrincipal": "https://app.interceptd.com/", "3rdPrincipal": "https://fullstory.com/s/fs.js", "isInput": "yes", "attr": "value", "value": "DataExStudy@iseclab.org"}
{"type": "Element::GetAttriubute", "PID": 19416, "docPrincipal": "https://app.interceptd.com/", "3rdPrincipal": "https://fullstory.com/s/fs.js", "isInput": "yes", "attr": "value", "value": "DataExStudy@iseclab.org"}
{"type": "Element::GetAttriubute", "PID": 19416, "docPrincipal": "https://app.interceptd.com/", "3rdPrincipal": "https://fullstory.com/s/fs.js", "isInput": "yes", "attr": "value", "value": "DataExStudy@iseclab.org"}
{"type": "Element::GetAttriubute", "PID": 19416, "docPrincipal": "https://app.interceptd.com/", "3rdPrincipal": "https://fullstory.com/s/fs.js", "isInput": "yes", "attr": "value", "value": "DataExStudy@iseclab.org"}
{"type": "Element::GetAttriubute", "PID": 19416, "docPrincipal": "https://app.interceptd.com/", "3rdPrincipal": "https://fullstory.com/s/fs.js", "isInput": "yes", "attr": "value", "value": "DataExStudy@iseclab.org"}
{"type": "Element::GetAttriubute", "PID": 19416, "docPrincipal": "https://app.interceptd.com/", "3rdPrincipal": "https://fullstory.com/s/fs.js", "isInput": "yes", "attr": "value", "value": "DataExStudy@iseclab.org"}
{"type": "Element::GetAttriubute", "PID": 19416, "docPrincipal": "https://app.interceptd.com/", "3rdPrincipal": "https://fullstory.com/s/fs.js", "isInput": "yes", "attr": "value", "value": "DataExStudy@iseclab.org"}
{"type": "Element::GetAttriubute", "PID": 19416, "docPrincipal": "https://app.interceptd.com/", "3rdPrincipal": "https://fullstory.com/s/fs.js", "isInput": "yes", "attr": "value", "value": "DataExStudy@iseclab.org"}
{"type": "Element::GetAttriubute", "PID": 19416, "docPrincipal": "https://app.interceptd.com/", "3rdPrincipal": "https://fullstory.com/s/fs.js", "isInput": "yes", "attr": "value", "value": "DataExStudy@iseclab.org"}
{"type": "Element::GetAttriubute", "PID": 19416, "docPrincipal": "https://app.interceptd.com/", "3rdPrincipal": "https://fullstory.com/s/fs.js", "isInput": "yes", "attr": "value", "value": "p@55w0Rd99"}
{"type": "Element::GetAttriubute", "PID": 19416, "docPrincipal": "https://app.interceptd.com/", "3rdPrincipal": "https://fullstory.com/s/fs.js", "isInput": "yes", "attr": "value", "value": "p@55w0Rd99"}
{"type": "Element::GetAttriubute", "PID": 19416, "docPrincipal": "https://app.interceptd.com/", "3rdPrincipal": "https://fullstory.com/s/fs.js", "isInput": "yes", "attr": "value", "value": "p@55w0Rd99"}
{"type": "Element::GetAttriubute", "PID": 19416, "docPrincipal": "https://app.interceptd.com/", "3rdPrincipal": "https://fullstory.com/s/fs.js", "isInput": "yes", "attr": "value", "value": "p@55w0Rd99"}
{"type": "Element::GetAttriubute", "PID": 19416, "docPrincipal": "https://app.interceptd.com/", "3rdPrincipal": "https://fullstory.com/s/fs.js", "isInput": "yes", "attr": "value", "value": "p@55w0Rd99"}
{"type": "Element::GetAttriubute", "PID": 19416, "docPrincipal": "https://app.interceptd.com/", "3rdPrincipal": "https://fullstory.com/s/fs.js", "isInput": "yes", "attr": "value", "value": "p@55w0Rd99"}
{"type": "Element::GetAttriubute", "PID": 19416, "docPrincipal": "https://app.interceptd.com/", "3rdPrincipal": "https://fullstory.com/s/fs.js", "isInput": "yes", "attr": "value", "value": "p@55w0Rd99"}
{"type": "Element::GetAttriubute", "PID": 19416, "docPrincipal": "https://app.interceptd.com/", "3rdPrincipal": "https://fullstory.com/s/fs.js", "isInput": "yes", "attr": "value", "value": "p@55w0Rd99"}
{"type": "Element::GetAttriubute", "PID": 19416, "docPrincipal": "https://app.interceptd.com/", "3rdPrincipal": "https://fullstory.com/s/fs.js", "isInput": "yes", "attr": "value", "value": "p@55w0Rd99"}
{"type": "Element::GetAttriubute", "PID": 19416, "docPrincipal": "https://app.interceptd.com/", "3rdPrincipal": "https://fullstory.com/s/fs.js", "isInput": "yes", "attr": "value", "value": "p@55w0Rd99"}
{"type": "Element::GetAttriubute", "PID": 14763, "docPrincipal": "https://app.dlvrit.com/login/new?position=hero", "3rdPrincipal": "https://script.hotjar.com/modules.8892a865463d29e21514.js", "isInput": "yes", "attr": "value", "value": "DataExStudy@iseclab.org"}
{"type": "Element::GetAttriubute", "PID": 14763, "docPrincipal": "https://app.dlvrit.com/login/new?position=hero", "3rdPrincipal": "https://script.hotjar.com/modules.8892a865463d29e21514.js", "isInput": "yes", "attr": "value", "value": "DataExStudy@iseclab.org"}
{"type": "Element::GetAttriubute", "PID": 14763, "docPrincipal": "https://app.dlvrit.com/login/new?position=hero", "3rdPrincipal": "https://script.hotjar.com/modules.8892a865463d29e21514.js", "isInput": "yes", "attr": "value", "value": "p@55w0Rd99"}
{"type": "Element::GetAttriubute", "PID": 14763, "docPrincipal": "https://app.dlvrit.com/login/new?position=hero", "3rdPrincipal": "https://script.hotjar.com/modules.8892a865463d29e21514.js", "isInput": "yes", "attr": "value", "value": "p@55w0Rd99"}
{"type": "Element::GetAttriubute", "PID": 792, "docPrincipal": "https://www.skylineprp.com/", "3rdPrincipal": "https://mc.yandex.ru/metrika/tag.js", "isInput": "yes", "attr": "value", "value": "Jane Doe"}
{"type": "Element::GetAttriubute", "PID": 792, "docPrincipal": "https://www.skylineprp.com/", "3rdPrincipal": "https://mc.yandex.ru/metrika/tag.js", "isInput": "yes", "attr": "value", "value": "Jane Doe"}
{"type": "Element::GetAttriubute", "PID": 792, "docPrincipal": "https://www.skylineprp.com/", "3rdPrincipal": "https://mc.yandex.ru/metrika/tag.js", "isInput": "yes", "attr": "value", "value": "Jane Doe"}
{"type": "Element::GetAttriubute", "PID": 792, "docPrincipal": "https://www.skylineprp.com/", "3rdPrincipal": "https://mc.yandex.ru/metrika/tag.js", "isInput": "yes", "attr": "value", "value": "Jane Doe"}
{"type": "Element::GetAttriubute", "PID": 792, "docPrincipal": "https://www.skylineprp.com/", "3rdPrincipal": "https://mc.yandex.ru/metrika/tag.js", "isInput": "yes", "attr": "value", "value": "Jane Doe"}
{"type": "Element::GetAttriubute", "PID": 792, "docPrincipal": "https://www.skylineprp.com/", "3rdPrincipal": "https://mc.yandex.ru/metrika/tag.js", "isInput": "yes", "attr": "value", "value": "Jane Doe"}
{"type": "Element::GetAttriubute", "PID": 792, "docPrincipal": "https://www.skylineprp.com/", "3rdPrincipal": "https://mc.yandex.ru/metrika/tag.js", "isInput": "yes", "attr": "value", "value": "Jane Doe"}
{"type": "Element::GetAttriubute", "PID": 792, "docPrincipal": "https://www.skylineprp.com/", "3rdPrincipal": "https://mc.yandex.ru/metrika/tag.js", "isInput": "yes", "attr": "value", "value": "Jane Doe"}
{"type": "Element::GetAttriubute", "PID": 792, "docPrincipal": "https://www.skylineprp.com/", "3rdPrincipal": "https://mc.yandex.ru/metrika/tag.js", "isInput": "yes", "attr": "value", "value": "DataExStudy@iseclab.org"}
{"type": "Element::GetAttriubute", "PID": 792, "docPrincipal": "https://www.skylineprp.com/", "3rdPrincipal": "https://mc.yandex.ru/metrika/tag.js", "isInput": "yes", "attr": "value", "value": "DataExStudy@iseclab.org"}
{"type": "Element::GetAttriubute", "PID": 792, "docPrincipal": "https://www.skylineprp.com/", "3rdPrincipal": "https://mc.yandex.ru/metrika/tag.js", "isInput": "yes", "attr": "value", "value": "DataExStudy@iseclab.org"}
{"type": "Element::GetAttriubute", "PID": 792, "docPrincipal": "https://www.skylineprp.com/", "3rdPrincipal": "https://mc.yandex.ru/metrika/tag.js", "isInput": "yes", "attr": "value", "value": "DataExStudy@iseclab.org"}
{"type": "Element::GetAttriubute", "PID": 792, "docPrincipal": "https://www.skylineprp.com/", "3rdPrincipal": "https://mc.yandex.ru/metrika/tag.js", "isInput": "yes", "attr": "value", "value": "DataExStudy@iseclab.org"}
{"type": "Element::GetAttriubute", "PID": 792, "docPrincipal": "https://www.skylineprp.com/", "3rdPrincipal": "https://mc.yandex.ru/metrika/tag.js", "isInput": "yes", "attr": "value", "value": "DataExStudy@iseclab.org"}
{"type": "Element::GetAttriubute", "PID": 792, "docPrincipal": "https://www.skylineprp.com/", "3rdPrincipal": "https://mc.yandex.ru/metrika/tag.js", "isInput": "yes", "attr": "value", "value": "DataExStudy@iseclab.org"}
{"type": "Element::GetAttriubute", "PID": 792, "docPrincipal": "https://www.skylineprp.com/", "3rdPrincipal": "https://mc.yandex.ru/metrika/tag.js", "isInput": "yes", "attr": "value", "value": "DataExStudy@iseclab.org"}
{"type": "Element::GetAttriubute", "PID": 792, "docPrincipal": "https://www.skylineprp.com/", "3rdPrincipal": "https://mc.yandex.ru/metrika/tag.js", "isInput": "yes", "attr": "value", "value": "DataExStudy@iseclab.org"}
{"type": "Element::GetAttriubute", "PID": 792, "docPrincipal": "https://www.skylineprp.com/", "3rdPrincipal": "https://mc.yandex.ru/metrika/tag.js", "isInput": "yes", "attr": "value", "value": "DataExStudy@iseclab.org"}
{"type": "Element::GetAttriubute", "PID": 792, "docPrincipal": "https://www.skylineprp.com/", "3rdPrincipal": "https://mc.yandex.ru/metrika/tag.js", "isInput": "yes", "attr": "value", "value": "DataExStudy@iseclab.org"}
{"type": "Element::GetAttriubute", "PID": 792, "docPrincipal": "https://www.skylineprp.com/", "3rdPrincipal": "https://mc.yandex.ru/metrika/tag.js", "isInput": "yes", "attr": "value", "value": "DataExStudy@iseclab.org"}
{"type": "Element::GetAttriubute", "PID": 792, "docPrincipal": "https://www.skylineprp.com/", "3rdPrincipal": "https://mc.yandex.ru/metrika/tag.js", "isInput": "yes", "attr": "value", "value": "DataExStudy@iseclab.org"}
{"type": "Element::GetAttriubute", "PID": 792, "docPrincipal": "https://www.skylineprp.com/", "3rdPrincipal": "https://mc.yandex.ru/metrika/tag.js", "isInput": "yes", "attr": "value", "value": "DataExStudy@iseclab.org"}
{"type": "Element::GetAttriubute", "PID": 792, "docPrincipal": "https://www.skylineprp.com/", "3rdPrincipal": "https://mc.yandex.ru/metrika/tag.js", "isInput": "yes", "attr": "value", "value": "DataExStudy@iseclab.org"}
{"type": "Element::GetAttriubute", "PID": 792, "docPrincipal": "https://www.skylineprp.com/", "3rdPrincipal": "https://mc.yandex.ru/metrika/tag.js", "isInput": "yes", "attr": "value", "value": "DataExStudy@iseclab.org"}
{"type": "Element::GetAttriubute", "PID": 792, "docPrincipal": "https://www.skylineprp.com/", "3rdPrincipal": "https://mc.yandex.ru/metrika/tag.js", "isInput": "yes", "attr": "value", "value": "DataExStudy@iseclab.org"}
{"type": "Element::GetAttriubute", "PID": 792, "docPrincipal": "https://www.skylineprp.com/", "3rdPrincipal": "https://mc.yandex.ru/metrika/tag.js", "isInput": "yes", "attr": "value", "value": "DataExStudy@iseclab.org"}
{"type": "Element::GetAttriubute", "PID": 792, "docPrincipal": "https://www.skylineprp.com/", "3rdPrincipal": "https://mc.yandex.ru/metrika/tag.js", "isInput": "yes", "attr": "value", "value": "DataExStudy@iseclab.org"}
{"type": "Element::GetAttriubute", "PID": 792, "docPrincipal": "https://www.skylineprp.com/", "3rdPrincipal": "https://mc.yandex.ru/metrika/tag.js", "isInput": "yes", "attr": "value", "value": "DataExStudy@iseclab.org"}
{"type": "Element::GetAttriubute", "PID": 792, "docPrincipal": "https://www.skylineprp.com/", "3rdPrincipal": "https://mc.yandex.ru/metrika/tag.js", "isInput": "yes", "attr": "value", "value": "DataExStudy@iseclab.org"}
{"type": "Element::GetAttriubute", "PID": 792, "docPrincipal": "https://www.skylineprp.com/", "3rdPrincipal": "https://mc.yandex.ru/metrika/tag.js", "isInput": "yes", "attr": "value", "value": "DataExStudy@iseclab.org"}
{"type": "Element::GetAttriubute", "PID": 792, "docPrincipal": "https://www.skylineprp.com/", "3rdPrincipal": "https://mc.yandex.ru/metrika/tag.js", "isInput": "yes", "attr": "value", "value": "DataExStudy@iseclab.org"}
{"type": "Element::GetAttriubute", "PID": 21002, "docPrincipal": "https://www.ftd.com/", "3rdPrincipal": "https://edge.fullstory.com/s/fs.js", "isInput": "yes", "attr": "value", "value": "12345"}
{"type": "Element::GetAttriubute", "PID": 21002, "docPrincipal": "https://www.ftd.com/", "3rdPrincipal": "https://edge.fullstory.com/s/fs.js", "isInput": "yes", "attr": "value", "value": "12345"}
{"type": "Element::GetAttriubute", "PID": 21002, "docPrincipal": "https://www.ftd.com/", "3rdPrincipal": "https://edge.fullstory.com/s/fs.js", "isInput": "yes", "attr": "value", "value": "12345"}
{"type": "Element::GetAttriubute", "PID": 21002, "docPrincipal": "https://www.ftd.com/", "3rdPrincipal": "https://edge.fullstory.com/s/fs.js", "isInput": "yes", "attr": "value", "value": "12345"}
{"type": "Element::GetAttriubute", "PID": 21002, "docPrincipal": "https://www.ftd.com/", "3rdPrincipal": "https://edge.fullstory.com/s/fs.js", "isInput": "yes", "attr": "value", "value": "12345"}
{"type": "Element::GetAttriubute", "PID": 21002, "docPrincipal": "https://www.ftd.com/", "3rdPrincipal": "https://edge.fullstory.com/s/fs.js", "isInput": "yes", "attr": "value", "value": "12345"}
{"type": "Element::GetAttriubute", "PID": 21002, "docPrincipal": "https://www.ftd.com/", "3rdPrincipal": "https://edge.fullstory.com/s/fs.js", "isInput": "yes", "attr": "value", "value": "12345"}
{"type": "Element::GetAttriubute", "PID": 10228, "docPrincipal": "http://sou.pptv.com/s_video?kw=DataExStudy%40iseclab.org&context=default", "3rdPrincipal": "http://static9.pplive.cn/website/web/vendor/v_20190226150252_3efb55/dist/vendor.js", "isInput": "yes", "attr": "data-textlist", "value": "DataExStudy@iseclab.org"}
{"type": "Element::GetAttriubute", "PID": 24771, "docPrincipal": "https://www.etihad.com/en-us/", "3rdPrincipal": "https://cdn.mouseflow.com/projects/226ff167-994e-4acb-85f6-1678320b3aad.js", "isInput": "yes", "attr": "value", "value": "DataExStudy@iseclab.org"}
{"type": "Element::GetAttriubute", "PID": 9022, "docPrincipal": "https://www.offerpad.com/", "3rdPrincipal": "https://fullstory.com/s/fs.js", "isInput": "yes", "attr": "value", "value": "1 Main St."}
{"type": "Element::GetAttriubute", "PID": 9022, "docPrincipal": "https://www.offerpad.com/", "3rdPrincipal": "https://fullstory.com/s/fs.js", "isInput": "yes", "attr": "value", "value": "1 Main St."}
{"type": "Element::GetAttriubute", "PID": 9022, "docPrincipal": "https://www.offerpad.com/", "3rdPrincipal": "https://fullstory.com/s/fs.js", "isInput": "yes", "attr": "value", "value": "1 Main St."}
{"type": "Element::GetAttriubute", "PID": 9022, "docPrincipal": "https://www.offerpad.com/", "3rdPrincipal": "https://fullstory.com/s/fs.js", "isInput": "yes", "attr": "value", "value": "1 Main St."}
{"type": "Element::GetAttriubute", "PID": 9022, "docPrincipal": "https://www.offerpad.com/", "3rdPrincipal": "https://fullstory.com/s/fs.js", "isInput": "yes", "attr": "value", "value": "1 Main St."}
{"type": "Element::GetAttriubute", "PID": 9022, "docPrincipal": "https://www.offerpad.com/", "3rdPrincipal": "https://fullstory.com/s/fs.js", "isInput": "yes", "attr": "value", "value": "1 Main St."}
{"type": "Element::GetAttriubute", "PID": 9022, "docPrincipal": "https://www.offerpad.com/", "3rdPrincipal": "https://fullstory.com/s/fs.js", "isInput": "yes", "attr": "value", "value": "1 Main St."}
{"type": "Element::GetAttriubute", "PID": 9022, "docPrincipal": "https://www.offerpad.com/", "3rdPrincipal": "https://fullstory.com/s/fs.js", "isInput": "yes", "attr": "value", "value": "1 Main St."}
{"type": "Element::GetAttriubute", "PID": 9022, "docPrincipal": "https://www.offerpad.com/", "3rdPrincipal": "https://fullstory.com/s/fs.js", "isInput": "yes", "attr": "value", "value": "1 Main St."}
{"type": "Element::GetAttriubute", "PID": 9022, "docPrincipal": "https://www.offerpad.com/", "3rdPrincipal": "https://fullstory.com/s/fs.js", "isInput": "yes", "attr": "value", "value": "1 Main St."}
{"type": "Element::GetAttriubute", "PID": 23408, "docPrincipal": "https://www.the-village.ru/", "3rdPrincipal": "https://mc.yandex.ru/metrika/tag.js", "isInput": "yes", "attr": "value", "value": "DataExStudy@iseclab.org"}
{"type": "Element::GetAttriubute", "PID": 23408, "docPrincipal": "https://www.the-village.ru/", "3rdPrincipal": "https://mc.yandex.ru/metrika/tag.js", "isInput": "yes", "attr": "value", "value": "DataExStudy@iseclab.org"}
{"type": "Element::GetAttriubute", "PID": 23408, "docPrincipal": "https://www.the-village.ru/", "3rdPrincipal": "https://mc.yandex.ru/metrika/tag.js", "isInput": "yes", "attr": "value", "value": "DataExStudy@iseclab.org"}
{"type": "Element::GetAttriubute", "PID": 23408, "docPrincipal": "https://www.the-village.ru/", "3rdPrincipal": "https://mc.yandex.ru/metrika/tag.js", "isInput": "yes", "attr": "value", "value": "DataExStudy@iseclab.org"}
{"type": "Element::GetAttriubute", "PID": 23408, "docPrincipal": "https://www.the-village.ru/", "3rdPrincipal": "https://mc.yandex.ru/metrika/tag.js", "isInput": "yes", "attr": "value", "value": "DataExStudy@iseclab.org"}
{"type": "Element::GetAttriubute", "PID": 23408, "docPrincipal": "https://www.the-village.ru/", "3rdPrincipal": "https://mc.yandex.ru/metrika/tag.js", "isInput": "yes", "attr": "value", "value": "DataExStudy@iseclab.org"}
{"type": "Element::GetAttriubute", "PID": 23408, "docPrincipal": "https://www.the-village.ru/", "3rdPrincipal": "https://mc.yandex.ru/metrika/tag.js", "isInput": "yes", "attr": "value", "value": "DataExStudy@iseclab.org"}
{"type": "Element::GetAttriubute", "PID": 23408, "docPrincipal": "https://www.the-village.ru/", "3rdPrincipal": "https://mc.yandex.ru/metrika/tag.js", "isInput": "yes", "attr": "value", "value": "DataExStudy@iseclab.org"}
{"type": "Element::GetAttriubute", "PID": 23408, "docPrincipal": "https://www.the-village.ru/", "3rdPrincipal": "https://mc.yandex.ru/metrika/tag.js", "isInput": "yes", "attr": "value", "value": "DataExStudy@iseclab.org"}
{"type": "Element::GetAttriubute", "PID": 23408, "docPrincipal": "https://www.the-village.ru/", "3rdPrincipal": "https://mc.yandex.ru/metrika/tag.js", "isInput": "yes", "attr": "value", "value": "DataExStudy@iseclab.org"}
{"type": "Element::GetAttriubute", "PID": 23408, "docPrincipal": "https://www.the-village.ru/", "3rdPrincipal": "https://mc.yandex.ru/metrika/tag.js", "isInput": "yes", "attr": "value", "value": "DataExStudy@iseclab.org"}
{"type": "Element::GetAttriubute", "PID": 23408, "docPrincipal": "https://www.the-village.ru/", "3rdPrincipal": "https://mc.yandex.ru/metrika/tag.js", "isInput": "yes", "attr": "value", "value": "DataExStudy@iseclab.org"}
{"type": "Element::GetAttriubute", "PID": 23408, "docPrincipal": "https://www.the-village.ru/", "3rdPrincipal": "https://mc.yandex.ru/metrika/tag.js", "isInput": "yes", "attr": "value", "value": "DataExStudy@iseclab.org"}
{"type": "Element::GetAttriubute", "PID": 23408, "docPrincipal": "https://www.the-village.ru/", "3rdPrincipal": "https://mc.yandex.ru/metrika/tag.js", "isInput": "yes", "attr": "value", "value": "DataExStudy@iseclab.org"}
{"type": "Element::GetAttriubute", "PID": 23408, "docPrincipal": "https://www.the-village.ru/", "3rdPrincipal": "https://mc.yandex.ru/metrika/tag.js", "isInput": "yes", "attr": "value", "value": "DataExStudy@iseclab.org"}
{"type": "Element::GetAttriubute", "PID": 23408, "docPrincipal": "https://www.the-village.ru/", "3rdPrincipal": "https://mc.yandex.ru/metrika/tag.js", "isInput": "yes", "attr": "value", "value": "DataExStudy@iseclab.org"}
{"type": "Element::GetAttriubute", "PID": 23408, "docPrincipal": "https://www.the-village.ru/", "3rdPrincipal": "https://mc.yandex.ru/metrika/tag.js", "isInput": "yes", "attr": "value", "value": "DataExStudy@iseclab.org"}
{"type": "Element::GetAttriubute", "PID": 23408, "docPrincipal": "https://www.the-village.ru/", "3rdPrincipal": "https://mc.yandex.ru/metrika/tag.js", "isInput": "yes", "attr": "value", "value": "DataExStudy@iseclab.org"}
{"type": "Element::GetAttriubute", "PID": 23408, "docPrincipal": "https://www.the-village.ru/", "3rdPrincipal": "https://mc.yandex.ru/metrika/tag.js", "isInput": "yes", "attr": "value", "value": "DataExStudy@iseclab.org"}
{"type": "Element::GetAttriubute", "PID": 23408, "docPrincipal": "https://www.the-village.ru/", "3rdPrincipal": "https://mc.yandex.ru/metrika/tag.js", "isInput": "yes", "attr": "value", "value": "DataExStudy@iseclab.org"}
{"type": "Element::GetAttriubute", "PID": 23408, "docPrincipal": "https://www.the-village.ru/", "3rdPrincipal": "https://mc.yandex.ru/metrika/tag.js", "isInput": "yes", "attr": "value", "value": "DataExStudy@iseclab.org"}
{"type": "Element::GetAttriubute", "PID": 23408, "docPrincipal": "https://www.the-village.ru/", "3rdPrincipal": "https://mc.yandex.ru/metrika/tag.js", "isInput": "yes", "attr": "value", "value": "DataExStudy@iseclab.org"}
{"type": "Element::GetAttriubute", "PID": 23408, "docPrincipal": "https://www.the-village.ru/", "3rdPrincipal": "https://mc.yandex.ru/metrika/tag.js", "isInput": "yes", "attr": "value", "value": "DataExStudy@iseclab.org"}
{"type": "Element::GetAttriubute", "PID": 14815, "docPrincipal": "https://www.lowes.com/", "3rdPrincipal": "https://edge.fullstory.com/s/fs.js", "isInput": "yes", "attr": "value", "value": "Jane Doe"}
{"type": "Element::GetAttriubute", "PID": 14815, "docPrincipal": "https://www.lowes.com/", "3rdPrincipal": "https://edge.fullstory.com/s/fs.js", "isInput": "yes", "attr": "value", "value": "Jane Doe"}
{"type": "Element::GetAttriubute", "PID": 14815, "docPrincipal": "https://www.lowes.com/", "3rdPrincipal": "https://edge.fullstory.com/s/fs.js", "isInput": "yes", "attr": "value", "value": "Jane Doe"}
{"type": "Element::GetAttriubute", "PID": 14815, "docPrincipal": "https://www.lowes.com/", "3rdPrincipal": "https://edge.fullstory.com/s/fs.js", "isInput": "yes", "attr": "value", "value": "Jane Doe"}
{"type": "Element::GetAttriubute", "PID": 14815, "docPrincipal": "https://www.lowes.com/", "3rdPrincipal": "https://edge.fullstory.com/s/fs.js", "isInput": "yes", "attr": "value", "value": "Jane Doe"}
{"type": "Element::GetAttriubute", "PID": 14815, "docPrincipal": "https://www.lowes.com/", "3rdPrincipal": "https://edge.fullstory.com/s/fs.js", "isInput": "yes", "attr": "value", "value": "Jane Doe"}
{"type": "Element::GetAttriubute", "PID": 14815, "docPrincipal": "https://www.lowes.com/", "3rdPrincipal": "https://edge.fullstory.com/s/fs.js", "isInput": "yes", "attr": "value", "value": "Jane Doe"}
{"type": "Element::GetAttriubute", "PID": 14815, "docPrincipal": "https://www.lowes.com/", "3rdPrincipal": "https://edge.fullstory.com/s/fs.js", "isInput": "yes", "attr": "value", "value": "Jane Doe"}
{"type": "Element::GetAttriubute", "PID": 11125, "docPrincipal": "https://www.muziker.pl/akcesoria", "3rdPrincipal": "https://muzikercdn.com/assets/common_libs-4a1ad24282c56b2c91b86373d027fd7800a3e8e0f651c86b306e5c4d3eaae861.js", "isInput": "yes", "attr": "data-default-position", "value": "30"}
{"type": "Element::GetAttriubute", "PID": 13374, "docPrincipal": "https://content.cin7.com/l/210502/2020-06-25/8t1b3j", "3rdPrincipal": "https://www.fullstory.com/s/fs.js", "isInput": "yes", "attr": "size", "value": "30"}
{"type": "Element::GetAttriubute", "PID": 13374, "docPrincipal": "https://content.cin7.com/l/210502/2020-06-25/8t1b3j", "3rdPrincipal": "https://www.fullstory.com/s/fs.js", "isInput": "yes", "attr": "size", "value": "30"}
{"type": "Element::GetAttriubute", "PID": 13374, "docPrincipal": "https://content.cin7.com/l/210502/2020-06-25/8t1b3j", "3rdPrincipal": "https://www.fullstory.com/s/fs.js", "isInput": "yes", "attr": "size", "value": "30"}
{"type": "Element::GetAttriubute", "PID": 13374, "docPrincipal": "https://content.cin7.com/l/210502/2020-06-25/8t1b3j", "3rdPrincipal": "https://www.fullstory.com/s/fs.js", "isInput": "yes", "attr": "size", "value": "30"}
{"type": "Element::GetAttriubute", "PID": 13374, "docPrincipal": "https://content.cin7.com/l/210502/2020-06-25/8t1b3j", "3rdPrincipal": "https://www.fullstory.com/s/fs.js", "isInput": "yes", "attr": "size", "value": "30"}
{"type": "Element::GetAttriubute", "PID": 13374, "docPrincipal": "https://content.cin7.com/l/210502/2020-06-25/8t1b3j", "3rdPrincipal": "https://www.fullstory.com/s/fs.js", "isInput": "yes", "attr": "size", "value": "30"}
{"type": "Element::GetAttriubute", "PID": 13374, "docPrincipal": "https://content.cin7.com/l/210502/2020-06-25/8t1b3j", "3rdPrincipal": "https://www.fullstory.com/s/fs.js", "isInput": "yes", "attr": "size", "value": "30"}
{"type": "Element::GetAttriubute", "PID": 13374, "docPrincipal": "https://content.cin7.com/l/210502/2020-06-25/8t1b3j", "3rdPrincipal": "https://www.fullstory.com/s/fs.js", "isInput": "yes", "attr": "size", "value": "30"}
{"type": "Element::GetAttriubute", "PID": 13374, "docPrincipal": "https://content.cin7.com/l/210502/2020-06-25/8t1b3j", "3rdPrincipal": "https://www.fullstory.com/s/fs.js", "isInput": "yes", "attr": "size", "value": "30"}
{"type": "Element::GetAttriubute", "PID": 13374, "docPrincipal": "https://content.cin7.com/l/210502/2020-06-25/8t1b3j", "3rdPrincipal": "https://www.fullstory.com/s/fs.js", "isInput": "yes", "attr": "size", "value": "30"}
{"type": "Element::GetAttriubute", "PID": 13374, "docPrincipal": "https://content.cin7.com/l/210502/2020-06-25/8t1b3j", "3rdPrincipal": "https://www.fullstory.com/s/fs.js", "isInput": "yes", "attr": "size", "value": "30"}
{"type": "Element::GetAttriubute", "PID": 13374, "docPrincipal": "https://content.cin7.com/l/210502/2020-06-25/8t1b3j", "3rdPrincipal": "https://www.fullstory.com/s/fs.js", "isInput": "yes", "attr": "size", "value": "30"}
{"type": "Element::GetAttriubute", "PID": 13374, "docPrincipal": "https://content.cin7.com/l/210502/2020-06-25/8t1b3j", "3rdPrincipal": "https://www.fullstory.com/s/fs.js", "isInput": "yes", "attr": "size", "value": "30"}
{"type": "Element::GetAttriubute", "PID": 13374, "docPrincipal": "https://content.cin7.com/l/210502/2020-06-25/8t1b3j", "3rdPrincipal": "https://www.fullstory.com/s/fs.js", "isInput": "yes", "attr": "size", "value": "30"}
{"type": "Element::GetAttriubute", "PID": 13374, "docPrincipal": "https://content.cin7.com/l/210502/2020-06-25/8t1b3j", "3rdPrincipal": "https://www.fullstory.com/s/fs.js", "isInput": "yes", "attr": "size", "value": "30"}
{"type": "Element::GetAttriubute", "PID": 13374, "docPrincipal": "https://content.cin7.com/l/210502/2020-06-25/8t1b3j", "3rdPrincipal": "https://www.fullstory.com/s/fs.js", "isInput": "yes", "attr": "size", "value": "30"}
{"type": "Element::GetAttriubute", "PID": 13374, "docPrincipal": "https://content.cin7.com/l/210502/2020-06-25/8t1b3j", "3rdPrincipal": "https://www.fullstory.com/s/fs.js", "isInput": "yes", "attr": "size", "value": "30"}
{"type": "Element::GetAttriubute", "PID": 13374, "docPrincipal": "https://content.cin7.com/l/210502/2020-06-25/8t1b3j", "3rdPrincipal": "https://www.fullstory.com/s/fs.js", "isInput": "yes", "attr": "size", "value": "30"}
{"type": "Element::GetAttriubute", "PID": 13374, "docPrincipal": "https://content.cin7.com/l/210502/2020-06-25/8t1b3j", "3rdPrincipal": "https://www.fullstory.com/s/fs.js", "isInput": "yes", "attr": "size", "value": "30"}
{"type": "Element::GetAttriubute", "PID": 13374, "docPrincipal": "https://content.cin7.com/l/210502/2020-06-25/8t1b3j", "3rdPrincipal": "https://www.fullstory.com/s/fs.js", "isInput": "yes", "attr": "size", "value": "30"}
{"type": "Element::GetAttriubute", "PID": 21782, "docPrincipal": "https://shop.tracfone.com/shop/TFOrderStatus", "3rdPrincipal": "https://cdn.glassboxcdn.com/trac/detector-dom.min.js", "isInput": "yes", "attr": "value", "value": "DataExStudy@iseclab.org"}
{"type": "Element::GetAttriubute", "PID": 21782, "docPrincipal": "https://shop.tracfone.com/shop/TFOrderStatus", "3rdPrincipal": "https://cdn.glassboxcdn.com/trac/detector-dom.min.js", "isInput": "yes", "attr": "value", "value": "DataExStudy@iseclab.org"}
{"type": "Element::GetAttriubute", "PID": 21782, "docPrincipal": "https://shop.tracfone.com/shop/TFOrderStatus", "3rdPrincipal": "https://cdn.glassboxcdn.com/trac/detector-dom.min.js", "isInput": "yes", "attr": "value", "value": "DataExStudy@iseclab.org"}
{"type": "Element::GetAttriubute", "PID": 21782, "docPrincipal": "https://shop.tracfone.com/shop/TFOrderStatus", "3rdPrincipal": "https://cdn.glassboxcdn.com/trac/detector-dom.min.js", "isInput": "yes", "attr": "value", "value": "DataExStudy@iseclab.org"}
{"type": "Element::GetAttriubute", "PID": 14709, "docPrincipal": "https://robokassa.com/contact/", "3rdPrincipal": "https://mc.yandex.ru/metrika/tag.js", "isInput": "yes", "attr": "data-padding", "value": "30"}
{"type": "Element::GetAttriubute", "PID": 14709, "docPrincipal": "https://robokassa.com/contact/", "3rdPrincipal": "https://mc.yandex.ru/metrika/tag.js", "isInput": "yes", "attr": "value", "value": "DataExStudy@iseclab.org"}
{"type": "Element::GetAttriubute", "PID": 14709, "docPrincipal": "https://robokassa.com/contact/", "3rdPrincipal": "https://mc.yandex.ru/metrika/tag.js", "isInput": "yes", "attr": "value", "value": "DataExStudy@iseclab.org"}
{"type": "Element::GetAttriubute", "PID": 14709, "docPrincipal": "https://robokassa.com/contact/", "3rdPrincipal": "https://mc.yandex.ru/metrika/tag.js", "isInput": "yes", "attr": "value", "value": "DataExStudy@iseclab.org"}
{"type": "Element::GetAttriubute", "PID": 14709, "docPrincipal": "https://robokassa.com/contact/", "3rdPrincipal": "https://mc.yandex.ru/metrika/tag.js", "isInput": "yes", "attr": "value", "value": "DataExStudy@iseclab.org"}
{"type": "Element::GetAttriubute", "PID": 14709, "docPrincipal": "https://robokassa.com/contact/", "3rdPrincipal": "https://mc.yandex.ru/metrika/tag.js", "isInput": "yes", "attr": "value", "value": "DataExStudy@iseclab.org"}
{"type": "Element::GetAttriubute", "PID": 14709, "docPrincipal": "https://robokassa.com/contact/", "3rdPrincipal": "https://mc.yandex.ru/metrika/tag.js", "isInput": "yes", "attr": "value", "value": "DataExStudy@iseclab.org"}
{"type": "Element::GetAttriubute", "PID": 14709, "docPrincipal": "https://robokassa.com/contact/", "3rdPrincipal": "https://mc.yandex.ru/metrika/tag.js", "isInput": "yes", "attr": "value", "value": "DataExStudy@iseclab.org"}
{"type": "Element::GetAttriubute", "PID": 14709, "docPrincipal": "https://robokassa.com/contact/", "3rdPrincipal": "https://mc.yandex.ru/metrika/tag.js", "isInput": "yes", "attr": "value", "value": "DataExStudy@iseclab.org"}
{"type": "Element::GetAttriubute", "PID": 14709, "docPrincipal": "https://robokassa.com/contact/", "3rdPrincipal": "https://mc.yandex.ru/metrika/tag.js", "isInput": "yes", "attr": "value", "value": "DataExStudy@iseclab.org"}
{"type": "Element::GetAttriubute", "PID": 14709, "docPrincipal": "https://robokassa.com/contact/", "3rdPrincipal": "https://mc.yandex.ru/metrika/tag.js", "isInput": "yes", "attr": "value", "value": "DataExStudy@iseclab.org"}
{"type": "Element::GetAttriubute", "PID": 14709, "docPrincipal": "https://robokassa.com/contact/", "3rdPrincipal": "https://mc.yandex.ru/metrika/tag.js", "isInput": "yes", "attr": "value", "value": "DataExStudy@iseclab.org"}
{"type": "Element::GetAttriubute", "PID": 14709, "docPrincipal": "https://robokassa.com/contact/", "3rdPrincipal": "https://mc.yandex.ru/metrika/tag.js", "isInput": "yes", "attr": "value", "value": "DataExStudy@iseclab.org"}
{"type": "Element::GetAttriubute", "PID": 14709, "docPrincipal": "https://robokassa.com/contact/", "3rdPrincipal": "https://mc.yandex.ru/metrika/tag.js", "isInput": "yes", "attr": "value", "value": "DataExStudy@iseclab.org"}
{"type": "Element::GetAttriubute", "PID": 14709, "docPrincipal": "https://robokassa.com/contact/", "3rdPrincipal": "https://mc.yandex.ru/metrika/tag.js", "isInput": "yes", "attr": "value", "value": "DataExStudy@iseclab.org"}
{"type": "Element::GetAttriubute", "PID": 14709, "docPrincipal": "https://robokassa.com/contact/", "3rdPrincipal": "https://mc.yandex.ru/metrika/tag.js", "isInput": "yes", "attr": "value", "value": "DataExStudy@iseclab.org"}
{"type": "Element::GetAttriubute", "PID": 14709, "docPrincipal": "https://robokassa.com/contact/", "3rdPrincipal": "https://mc.yandex.ru/metrika/tag.js", "isInput": "yes", "attr": "value", "value": "DataExStudy@iseclab.org"}
{"type": "Element::GetAttriubute", "PID": 14709, "docPrincipal": "https://robokassa.com/contact/", "3rdPrincipal": "https://mc.yandex.ru/metrika/tag.js", "isInput": "yes", "attr": "value", "value": "DataExStudy@iseclab.org"}
{"type": "Element::GetAttriubute", "PID": 14709, "docPrincipal": "https://robokassa.com/contact/", "3rdPrincipal": "https://mc.yandex.ru/metrika/tag.js", "isInput": "yes", "attr": "value", "value": "DataExStudy@iseclab.org"}
{"type": "Element::GetAttriubute", "PID": 14709, "docPrincipal": "https://robokassa.com/contact/", "3rdPrincipal": "https://mc.yandex.ru/metrika/tag.js", "isInput": "yes", "attr": "value", "value": "DataExStudy@iseclab.org"}
{"type": "Element::GetAttriubute", "PID": 14709, "docPrincipal": "https://robokassa.com/contact/", "3rdPrincipal": "https://mc.yandex.ru/metrika/tag.js", "isInput": "yes", "attr": "value", "value": "DataExStudy@iseclab.org"}
{"type": "Element::GetAttriubute", "PID": 14709, "docPrincipal": "https://robokassa.com/contact/", "3rdPrincipal": "https://mc.yandex.ru/metrika/tag.js", "isInput": "yes", "attr": "value", "value": "DataExStudy@iseclab.org"}
{"type": "Element::GetAttriubute", "PID": 14709, "docPrincipal": "https://robokassa.com/contact/", "3rdPrincipal": "https://mc.yandex.ru/metrika/tag.js", "isInput": "yes", "attr": "value", "value": "DataExStudy@iseclab.org"}
{"type": "Element::GetAttriubute", "PID": 14709, "docPrincipal": "https://robokassa.com/contact/", "3rdPrincipal": "https://mc.yandex.ru/metrika/tag.js", "isInput": "yes", "attr": "value", "value": "DataExStudy@iseclab.org"}
{"type": "Element::GetAttriubute", "PID": 14709, "docPrincipal": "https://robokassa.com/contact/", "3rdPrincipal": "https://mc.yandex.ru/metrika/tag.js", "isInput": "yes", "attr": "value", "value": "DataExStudy@iseclab.org"}
{"type": "Element::GetAttriubute", "PID": 14709, "docPrincipal": "https://robokassa.com/contact/", "3rdPrincipal": "https://mc.yandex.ru/metrika/tag.js", "isInput": "yes", "attr": "value", "value": "617 555 1234"}
{"type": "Element::GetAttriubute", "PID": 14709, "docPrincipal": "https://robokassa.com/contact/", "3rdPrincipal": "https://mc.yandex.ru/metrika/tag.js", "isInput": "yes", "attr": "value", "value": "617 555 1234"}
{"type": "Element::GetAttriubute", "PID": 14709, "docPrincipal": "https://robokassa.com/contact/", "3rdPrincipal": "https://mc.yandex.ru/metrika/tag.js", "isInput": "yes", "attr": "value", "value": "617 555 1234"}
{"type": "Element::GetAttriubute", "PID": 14709, "docPrincipal": "https://robokassa.com/contact/", "3rdPrincipal": "https://mc.yandex.ru/metrika/tag.js", "isInput": "yes", "attr": "value", "value": "617 555 1234"}
{"type": "Element::GetAttriubute", "PID": 14709, "docPrincipal": "https://robokassa.com/contact/", "3rdPrincipal": "https://mc.yandex.ru/metrika/tag.js", "isInput": "yes", "attr": "value", "value": "617 555 1234"}
{"type": "Element::GetAttriubute", "PID": 14709, "docPrincipal": "https://robokassa.com/contact/", "3rdPrincipal": "https://mc.yandex.ru/metrika/tag.js", "isInput": "yes", "attr": "value", "value": "617 555 1234"}
{"type": "Element::GetAttriubute", "PID": 14709, "docPrincipal": "https://robokassa.com/contact/", "3rdPrincipal": "https://mc.yandex.ru/metrika/tag.js", "isInput": "yes", "attr": "value", "value": "617 555 1234"}
{"type": "Element::GetAttriubute", "PID": 14709, "docPrincipal": "https://robokassa.com/contact/", "3rdPrincipal": "https://mc.yandex.ru/metrika/tag.js", "isInput": "yes", "attr": "value", "value": "617 555 1234"}
{"type": "Element::GetAttriubute", "PID": 14709, "docPrincipal": "https://robokassa.com/contact/", "3rdPrincipal": "https://mc.yandex.ru/metrika/tag.js", "isInput": "yes", "attr": "value", "value": "617 555 1234"}
{"type": "Element::GetAttriubute", "PID": 14709, "docPrincipal": "https://robokassa.com/contact/", "3rdPrincipal": "https://mc.yandex.ru/metrika/tag.js", "isInput": "yes", "attr": "value", "value": "617 555 1234"}
{"type": "Element::GetAttriubute", "PID": 14709, "docPrincipal": "https://robokassa.com/contact/", "3rdPrincipal": "https://mc.yandex.ru/metrika/tag.js", "isInput": "yes", "attr": "value", "value": "617 555 1234"}
{"type": "Element::GetAttriubute", "PID": 14709, "docPrincipal": "https://robokassa.com/contact/", "3rdPrincipal": "https://mc.yandex.ru/metrika/tag.js", "isInput": "yes", "attr": "value", "value": "617 555 1234"}
{"type": "Element::GetAttriubute", "PID": 14709, "docPrincipal": "https://robokassa.com/contact/", "3rdPrincipal": "https://mc.yandex.ru/metrika/tag.js", "isInput": "yes", "attr": "value", "value": "617 555 1234"}
{"type": "Element::GetAttriubute", "PID": 14709, "docPrincipal": "https://robokassa.com/contact/", "3rdPrincipal": "https://mc.yandex.ru/metrika/tag.js", "isInput": "yes", "attr": "value", "value": "DataExStudy@iseclab.org"}
{"type": "Element::GetAttriubute", "PID": 14709, "docPrincipal": "https://robokassa.com/contact/", "3rdPrincipal": "https://mc.yandex.ru/metrika/tag.js", "isInput": "yes", "attr": "value", "value": "DataExStudy@iseclab.org"}
{"type": "Element::GetAttriubute", "PID": 14709, "docPrincipal": "https://robokassa.com/contact/", "3rdPrincipal": "https://mc.yandex.ru/metrika/tag.js", "isInput": "yes", "attr": "value", "value": "DataExStudy@iseclab.org"}
{"type": "Element::GetAttriubute", "PID": 14709, "docPrincipal": "https://robokassa.com/contact/", "3rdPrincipal": "https://mc.yandex.ru/metrika/tag.js", "isInput": "yes", "attr": "value", "value": "DataExStudy@iseclab.org"}
{"type": "Element::GetAttriubute", "PID": 14709, "docPrincipal": "https://robokassa.com/contact/", "3rdPrincipal": "https://mc.yandex.ru/metrika/tag.js", "isInput": "yes", "attr": "value", "value": "DataExStudy@iseclab.org"}
{"type": "Element::GetAttriubute", "PID": 14709, "docPrincipal": "https://robokassa.com/contact/", "3rdPrincipal": "https://mc.yandex.ru/metrika/tag.js", "isInput": "yes", "attr": "value", "value": "DataExStudy@iseclab.org"}
{"type": "Element::GetAttriubute", "PID": 14709, "docPrincipal": "https://robokassa.com/contact/", "3rdPrincipal": "https://mc.yandex.ru/metrika/tag.js", "isInput": "yes", "attr": "value", "value": "DataExStudy@iseclab.org"}
{"type": "Element::GetAttriubute", "PID": 14709, "docPrincipal": "https://robokassa.com/contact/", "3rdPrincipal": "https://mc.yandex.ru/metrika/tag.js", "isInput": "yes", "attr": "value", "value": "DataExStudy@iseclab.org"}
{"type": "Element::GetAttriubute", "PID": 14709, "docPrincipal": "https://robokassa.com/contact/", "3rdPrincipal": "https://mc.yandex.ru/metrika/tag.js", "isInput": "yes", "attr": "value", "value": "DataExStudy@iseclab.org"}
{"type": "Element::GetAttriubute", "PID": 14709, "docPrincipal": "https://robokassa.com/contact/", "3rdPrincipal": "https://mc.yandex.ru/metrika/tag.js", "isInput": "yes", "attr": "value", "value": "DataExStudy@iseclab.org"}
{"type": "Element::GetAttriubute", "PID": 14709, "docPrincipal": "https://robokassa.com/contact/", "3rdPrincipal": "https://mc.yandex.ru/metrika/tag.js", "isInput": "yes", "attr": "value", "value": "DataExStudy@iseclab.org"}
{"type": "Element::GetAttriubute", "PID": 14709, "docPrincipal": "https://robokassa.com/contact/", "3rdPrincipal": "https://mc.yandex.ru/metrika/tag.js", "isInput": "yes", "attr": "value", "value": "DataExStudy@iseclab.org"}
{"type": "Element::GetAttriubute", "PID": 14709, "docPrincipal": "https://robokassa.com/contact/", "3rdPrincipal": "https://mc.yandex.ru/metrika/tag.js", "isInput": "yes", "attr": "value", "value": "DataExStudy@iseclab.org"}
{"type": "Element::GetAttriubute", "PID": 14709, "docPrincipal": "https://robokassa.com/contact/", "3rdPrincipal": "https://mc.yandex.ru/metrika/tag.js", "isInput": "yes", "attr": "value", "value": "DataExStudy@iseclab.org"}
{"type": "Element::GetAttriubute", "PID": 14709, "docPrincipal": "https://robokassa.com/contact/", "3rdPrincipal": "https://mc.yandex.ru/metrika/tag.js", "isInput": "yes", "attr": "value", "value": "DataExStudy@iseclab.org"}
{"type": "Element::GetAttriubute", "PID": 14709, "docPrincipal": "https://robokassa.com/contact/", "3rdPrincipal": "https://mc.yandex.ru/metrika/tag.js", "isInput": "yes", "attr": "value", "value": "DataExStudy@iseclab.org"}
{"type": "Element::GetAttriubute", "PID": 14709, "docPrincipal": "https://robokassa.com/contact/", "3rdPrincipal": "https://mc.yandex.ru/metrika/tag.js", "isInput": "yes", "attr": "value", "value": "DataExStudy@iseclab.org"}
{"type": "Element::GetAttriubute", "PID": 14709, "docPrincipal": "https://robokassa.com/contact/", "3rdPrincipal": "https://mc.yandex.ru/metrika/tag.js", "isInput": "yes", "attr": "value", "value": "DataExStudy@iseclab.org"}
{"type": "Element::GetAttriubute", "PID": 14709, "docPrincipal": "https://robokassa.com/contact/", "3rdPrincipal": "https://mc.yandex.ru/metrika/tag.js", "isInput": "yes", "attr": "value", "value": "DataExStudy@iseclab.org"}
{"type": "Element::GetAttriubute", "PID": 14709, "docPrincipal": "https://robokassa.com/contact/", "3rdPrincipal": "https://mc.yandex.ru/metrika/tag.js", "isInput": "yes", "attr": "value", "value": "DataExStudy@iseclab.org"}
{"type": "Element::GetAttriubute", "PID": 14709, "docPrincipal": "https://robokassa.com/contact/", "3rdPrincipal": "https://mc.yandex.ru/metrika/tag.js", "isInput": "yes", "attr": "value", "value": "DataExStudy@iseclab.org"}
{"type": "Element::GetAttriubute", "PID": 14709, "docPrincipal": "https://robokassa.com/contact/", "3rdPrincipal": "https://mc.yandex.ru/metrika/tag.js", "isInput": "yes", "attr": "value", "value": "DataExStudy@iseclab.org"}
{"type": "Element::GetAttriubute", "PID": 14709, "docPrincipal": "https://robokassa.com/contact/", "3rdPrincipal": "https://mc.yandex.ru/metrika/tag.js", "isInput": "yes", "attr": "value", "value": "DataExStudy@iseclab.org"}
{"type": "Element::GetAttriubute", "PID": 14709, "docPrincipal": "https://robokassa.com/contact/", "3rdPrincipal": "https://mc.yandex.ru/metrika/tag.js", "isInput": "yes", "attr": "value", "value": "DataExStudy@iseclab.org"}
{"type": "Element::GetAttriubute", "PID": 14709, "docPrincipal": "https://robokassa.com/contact/", "3rdPrincipal": "https://mc.yandex.ru/metrika/tag.js", "isInput": "yes", "attr": "value", "value": "DataExStudy@iseclab.org"}
{"type": "Element::GetAttriubute", "PID": 14709, "docPrincipal": "https://robokassa.com/contact/", "3rdPrincipal": "https://mc.yandex.ru/metrika/tag.js", "isInput": "yes", "attr": "value", "value": "DataExStudy@iseclab.org"}
{"type": "Element::GetAttriubute", "PID": 14709, "docPrincipal": "https://robokassa.com/contact/", "3rdPrincipal": "https://mc.yandex.ru/metrika/tag.js", "isInput": "yes", "attr": "value", "value": "DataExStudy@iseclab.org"}
{"type": "Element::GetAttriubute", "PID": 14709, "docPrincipal": "https://robokassa.com/contact/", "3rdPrincipal": "https://mc.yandex.ru/metrika/tag.js", "isInput": "yes", "attr": "value", "value": "DataExStudy@iseclab.org"}
{"type": "Element::GetAttriubute", "PID": 14709, "docPrincipal": "https://robokassa.com/contact/", "3rdPrincipal": "https://mc.yandex.ru/metrika/tag.js", "isInput": "yes", "attr": "value", "value": "DataExStudy@iseclab.org"}
{"type": "Element::GetAttriubute", "PID": 14709, "docPrincipal": "https://robokassa.com/contact/", "3rdPrincipal": "https://mc.yandex.ru/metrika/tag.js", "isInput": "yes", "attr": "value", "value": "DataExStudy@iseclab.org"}
{"type": "Element::GetAttriubute", "PID": 14709, "docPrincipal": "https://robokassa.com/contact/", "3rdPrincipal": "https://mc.yandex.ru/metrika/tag.js", "isInput": "yes", "attr": "value", "value": "DataExStudy@iseclab.org"}
{"type": "Element::GetAttriubute", "PID": 14709, "docPrincipal": "https://robokassa.com/contact/", "3rdPrincipal": "https://mc.yandex.ru/metrika/tag.js", "isInput": "yes", "attr": "value", "value": "DataExStudy@iseclab.org"}
{"type": "Element::GetAttriubute", "PID": 14709, "docPrincipal": "https://robokassa.com/contact/", "3rdPrincipal": "https://mc.yandex.ru/metrika/tag.js", "isInput": "yes", "attr": "value", "value": "DataExStudy@iseclab.org"}
{"type": "Element::GetAttriubute", "PID": 14709, "docPrincipal": "https://robokassa.com/contact/", "3rdPrincipal": "https://mc.yandex.ru/metrika/tag.js", "isInput": "yes", "attr": "value", "value": "DataExStudy@iseclab.org"}
{"type": "Element::GetAttriubute", "PID": 14709, "docPrincipal": "https://robokassa.com/contact/", "3rdPrincipal": "https://mc.yandex.ru/metrika/tag.js", "isInput": "yes", "attr": "value", "value": "DataExStudy@iseclab.org"}
{"type": "Element::GetAttriubute", "PID": 14709, "docPrincipal": "https://robokassa.com/contact/", "3rdPrincipal": "https://mc.yandex.ru/metrika/tag.js", "isInput": "yes", "attr": "value", "value": "DataExStudy@iseclab.org"}
{"type": "Element::GetAttriubute", "PID": 14709, "docPrincipal": "https://robokassa.com/contact/", "3rdPrincipal": "https://mc.yandex.ru/metrika/tag.js", "isInput": "yes", "attr": "value", "value": "DataExStudy@iseclab.org"}
{"type": "Element::GetAttriubute", "PID": 14709, "docPrincipal": "https://robokassa.com/contact/", "3rdPrincipal": "https://mc.yandex.ru/metrika/tag.js", "isInput": "yes", "attr": "value", "value": "DataExStudy@iseclab.org"}
{"type": "Element::GetAttriubute", "PID": 14709, "docPrincipal": "https://robokassa.com/contact/", "3rdPrincipal": "https://mc.yandex.ru/metrika/tag.js", "isInput": "yes", "attr": "value", "value": "DataExStudy@iseclab.org"}
{"type": "Element::GetAttriubute", "PID": 14709, "docPrincipal": "https://robokassa.com/contact/", "3rdPrincipal": "https://mc.yandex.ru/metrika/tag.js", "isInput": "yes", "attr": "value", "value": "DataExStudy@iseclab.org"}
{"type": "Element::GetAttriubute", "PID": 14709, "docPrincipal": "https://robokassa.com/contact/", "3rdPrincipal": "https://mc.yandex.ru/metrika/tag.js", "isInput": "yes", "attr": "value", "value": "DataExStudy@iseclab.org"}
{"type": "Element::GetAttriubute", "PID": 14709, "docPrincipal": "https://robokassa.com/contact/", "3rdPrincipal": "https://mc.yandex.ru/metrika/tag.js", "isInput": "yes", "attr": "value", "value": "DataExStudy@iseclab.org"}
{"type": "Element::GetAttriubute", "PID": 14709, "docPrincipal": "https://robokassa.com/contact/", "3rdPrincipal": "https://mc.yandex.ru/metrika/tag.js", "isInput": "yes", "attr": "value", "value": "DataExStudy@iseclab.org"}
{"type": "Element::GetAttriubute", "PID": 14709, "docPrincipal": "https://robokassa.com/contact/", "3rdPrincipal": "https://mc.yandex.ru/metrika/tag.js", "isInput": "yes", "attr": "value", "value": "DataExStudy@iseclab.org"}
{"type": "Element::GetAttriubute", "PID": 14709, "docPrincipal": "https://robokassa.com/contact/", "3rdPrincipal": "https://mc.yandex.ru/metrika/tag.js", "isInput": "yes", "attr": "value", "value": "DataExStudy@iseclab.org"}
{"type": "Element::GetAttriubute", "PID": 14709, "docPrincipal": "https://robokassa.com/contact/", "3rdPrincipal": "https://mc.yandex.ru/metrika/tag.js", "isInput": "yes", "attr": "value", "value": "DataExStudy@iseclab.org"}
{"type": "Element::GetAttriubute", "PID": 14709, "docPrincipal": "https://robokassa.com/contact/", "3rdPrincipal": "https://mc.yandex.ru/metrika/tag.js", "isInput": "yes", "attr": "value", "value": "DataExStudy@iseclab.org"}
{"type": "Element::GetAttriubute", "PID": 14709, "docPrincipal": "https://robokassa.com/contact/", "3rdPrincipal": "https://mc.yandex.ru/metrika/tag.js", "isInput": "yes", "attr": "value", "value": "DataExStudy@iseclab.org"}
{"type": "Element::GetAttriubute", "PID": 24023, "docPrincipal": "https://my.rentpath.com/login", "3rdPrincipal": "https://fullstory.com/s/fs.js", "isInput": "yes", "attr": "value", "value": "DataExStudy@iseclab.org"}
{"type": "Element::GetAttriubute", "PID": 24023, "docPrincipal": "https://my.rentpath.com/login", "3rdPrincipal": "https://fullstory.com/s/fs.js", "isInput": "yes", "attr": "value", "value": "DataExStudy@iseclab.org"}
{"type": "Element::GetAttriubute", "PID": 28668, "docPrincipal": "https://youdo.com/", "3rdPrincipal": "https://mc.yandex.ru/metrika/tag.js", "isInput": "yes", "attr": "value", "value": "DataExStudy@iseclab.org"}
{"type": "Element::GetAttriubute", "PID": 28668, "docPrincipal": "https://youdo.com/", "3rdPrincipal": "https://mc.yandex.ru/metrika/tag.js", "isInput": "yes", "attr": "value", "value": "DataExStudy@iseclab.org"}
{"type": "Element::GetAttriubute", "PID": 28668, "docPrincipal": "https://youdo.com/", "3rdPrincipal": "https://mc.yandex.ru/metrika/tag.js", "isInput": "yes", "attr": "value", "value": "DataExStudy@iseclab.org"}
{"type": "Element::GetAttriubute", "PID": 28668, "docPrincipal": "https://youdo.com/", "3rdPrincipal": "https://mc.yandex.ru/metrika/tag.js", "isInput": "yes", "attr": "value", "value": "DataExStudy@iseclab.org"}
{"type": "Element::GetAttriubute", "PID": 28668, "docPrincipal": "https://youdo.com/", "3rdPrincipal": "https://mc.yandex.ru/metrika/tag.js", "isInput": "yes", "attr": "value", "value": "DataExStudy@iseclab.org"}
{"type": "Element::GetAttriubute", "PID": 28668, "docPrincipal": "https://youdo.com/", "3rdPrincipal": "https://mc.yandex.ru/metrika/tag.js", "isInput": "yes", "attr": "value", "value": "DataExStudy@iseclab.org"}
{"type": "Element::GetAttriubute", "PID": 28668, "docPrincipal": "https://youdo.com/", "3rdPrincipal": "https://mc.yandex.ru/metrika/tag.js", "isInput": "yes", "attr": "value", "value": "DataExStudy@iseclab.org"}
{"type": "Element::GetAttriubute", "PID": 28668, "docPrincipal": "https://youdo.com/", "3rdPrincipal": "https://mc.yandex.ru/metrika/tag.js", "isInput": "yes", "attr": "value", "value": "DataExStudy@iseclab.org"}
{"type": "Element::GetAttriubute", "PID": 28668, "docPrincipal": "https://youdo.com/", "3rdPrincipal": "https://mc.yandex.ru/metrika/tag.js", "isInput": "yes", "attr": "value", "value": "DataExStudy@iseclab.org"}
{"type": "Element::GetAttriubute", "PID": 28668, "docPrincipal": "https://youdo.com/", "3rdPrincipal": "https://mc.yandex.ru/metrika/tag.js", "isInput": "yes", "attr": "value", "value": "DataExStudy@iseclab.org"}
{"type": "Element::GetAttriubute", "PID": 28668, "docPrincipal": "https://youdo.com/", "3rdPrincipal": "https://mc.yandex.ru/metrika/tag.js", "isInput": "yes", "attr": "value", "value": "DataExStudy@iseclab.org"}
{"type": "Element::GetAttriubute", "PID": 28668, "docPrincipal": "https://youdo.com/", "3rdPrincipal": "https://mc.yandex.ru/metrika/tag.js", "isInput": "yes", "attr": "value", "value": "DataExStudy@iseclab.org"}
{"type": "Element::GetAttriubute", "PID": 28668, "docPrincipal": "https://youdo.com/", "3rdPrincipal": "https://mc.yandex.ru/metrika/tag.js", "isInput": "yes", "attr": "value", "value": "DataExStudy@iseclab.org"}
{"type": "Element::GetAttriubute", "PID": 28668, "docPrincipal": "https://youdo.com/", "3rdPrincipal": "https://mc.yandex.ru/metrika/tag.js", "isInput": "yes", "attr": "value", "value": "DataExStudy@iseclab.org"}
{"type": "Element::GetAttriubute", "PID": 28668, "docPrincipal": "https://youdo.com/", "3rdPrincipal": "https://mc.yandex.ru/metrika/tag.js", "isInput": "yes", "attr": "value", "value": "DataExStudy@iseclab.org"}
{"type": "Element::GetAttriubute", "PID": 28668, "docPrincipal": "https://youdo.com/", "3rdPrincipal": "https://mc.yandex.ru/metrika/tag.js", "isInput": "yes", "attr": "value", "value": "DataExStudy@iseclab.org"}
{"type": "Element::GetAttriubute", "PID": 28668, "docPrincipal": "https://youdo.com/", "3rdPrincipal": "https://mc.yandex.ru/metrika/tag.js", "isInput": "yes", "attr": "value", "value": "DataExStudy@iseclab.org"}
{"type": "Element::GetAttriubute", "PID": 28668, "docPrincipal": "https://youdo.com/", "3rdPrincipal": "https://mc.yandex.ru/metrika/tag.js", "isInput": "yes", "attr": "value", "value": "DataExStudy@iseclab.org"}
{"type": "Element::GetAttriubute", "PID": 28668, "docPrincipal": "https://youdo.com/", "3rdPrincipal": "https://mc.yandex.ru/metrika/tag.js", "isInput": "yes", "attr": "value", "value": "DataExStudy@iseclab.org"}
{"type": "Element::GetAttriubute", "PID": 28668, "docPrincipal": "https://youdo.com/", "3rdPrincipal": "https://mc.yandex.ru/metrika/tag.js", "isInput": "yes", "attr": "value", "value": "DataExStudy@iseclab.org"}
{"type": "Element::GetAttriubute", "PID": 28668, "docPrincipal": "https://youdo.com/", "3rdPrincipal": "https://mc.yandex.ru/metrika/tag.js", "isInput": "yes", "attr": "value", "value": "DataExStudy@iseclab.org"}
{"type": "Element::GetAttriubute", "PID": 28668, "docPrincipal": "https://youdo.com/", "3rdPrincipal": "https://mc.yandex.ru/metrika/tag.js", "isInput": "yes", "attr": "value", "value": "DataExStudy@iseclab.org"}
{"type": "Element::GetAttriubute", "PID": 28668, "docPrincipal": "https://youdo.com/", "3rdPrincipal": "https://mc.yandex.ru/metrika/tag.js", "isInput": "yes", "attr": "value", "value": "DataExStudy@iseclab.org"}
{"type": "Element::GetAttriubute", "PID": 4636, "docPrincipal": "https://www.stoloto.ru/contacts?int=podval", "3rdPrincipal": "https://mc.yandex.ru/metrika/tag.js", "isInput": "yes", "attr": "value", "value": "Jane Doe"}
{"type": "Element::GetAttriubute", "PID": 4636, "docPrincipal": "https://www.stoloto.ru/contacts?int=podval", "3rdPrincipal": "https://mc.yandex.ru/metrika/tag.js", "isInput": "yes", "attr": "value", "value": "Jane Doe"}
{"type": "Element::GetAttriubute", "PID": 4636, "docPrincipal": "https://www.stoloto.ru/contacts?int=podval", "3rdPrincipal": "https://mc.yandex.ru/metrika/tag.js", "isInput": "yes", "attr": "value", "value": "Jane Doe"}
{"type": "Element::GetAttriubute", "PID": 4636, "docPrincipal": "https://www.stoloto.ru/contacts?int=podval", "3rdPrincipal": "https://mc.yandex.ru/metrika/tag.js", "isInput": "yes", "attr": "value", "value": "Jane Doe"}
{"type": "Element::GetAttriubute", "PID": 4636, "docPrincipal": "https://www.stoloto.ru/contacts?int=podval", "3rdPrincipal": "https://mc.yandex.ru/metrika/tag.js", "isInput": "yes", "attr": "value", "value": "Jane Doe"}
{"type": "Element::GetAttriubute", "PID": 4636, "docPrincipal": "https://www.stoloto.ru/contacts?int=podval", "3rdPrincipal": "https://mc.yandex.ru/metrika/tag.js", "isInput": "yes", "attr": "value", "value": "Jane Doe"}
{"type": "Element::GetAttriubute", "PID": 4636, "docPrincipal": "https://www.stoloto.ru/contacts?int=podval", "3rdPrincipal": "https://mc.yandex.ru/metrika/tag.js", "isInput": "yes", "attr": "value", "value": "Jane Doe"}
{"type": "Element::GetAttriubute", "PID": 4636, "docPrincipal": "https://www.stoloto.ru/contacts?int=podval", "3rdPrincipal": "https://mc.yandex.ru/metrika/tag.js", "isInput": "yes", "attr": "value", "value": "Jane Doe"}
{"type": "Element::GetAttriubute", "PID": 4636, "docPrincipal": "https://www.stoloto.ru/contacts?int=podval", "3rdPrincipal": "https://mc.yandex.ru/metrika/tag.js", "isInput": "yes", "attr": "value", "value": "DataExStudy@iseclab.org"}
{"type": "Element::GetAttriubute", "PID": 4636, "docPrincipal": "https://www.stoloto.ru/contacts?int=podval", "3rdPrincipal": "https://mc.yandex.ru/metrika/tag.js", "isInput": "yes", "attr": "value", "value": "DataExStudy@iseclab.org"}
{"type": "Element::GetAttriubute", "PID": 4636, "docPrincipal": "https://www.stoloto.ru/contacts?int=podval", "3rdPrincipal": "https://mc.yandex.ru/metrika/tag.js", "isInput": "yes", "attr": "value", "value": "DataExStudy@iseclab.org"}
{"type": "Element::GetAttriubute", "PID": 4636, "docPrincipal": "https://www.stoloto.ru/contacts?int=podval", "3rdPrincipal": "https://mc.yandex.ru/metrika/tag.js", "isInput": "yes", "attr": "value", "value": "DataExStudy@iseclab.org"}
{"type": "Element::GetAttriubute", "PID": 4636, "docPrincipal": "https://www.stoloto.ru/contacts?int=podval", "3rdPrincipal": "https://mc.yandex.ru/metrika/tag.js", "isInput": "yes", "attr": "value", "value": "DataExStudy@iseclab.org"}
{"type": "Element::GetAttriubute", "PID": 4636, "docPrincipal": "https://www.stoloto.ru/contacts?int=podval", "3rdPrincipal": "https://mc.yandex.ru/metrika/tag.js", "isInput": "yes", "attr": "value", "value": "DataExStudy@iseclab.org"}
{"type": "Element::GetAttriubute", "PID": 4636, "docPrincipal": "https://www.stoloto.ru/contacts?int=podval", "3rdPrincipal": "https://mc.yandex.ru/metrika/tag.js", "isInput": "yes", "attr": "value", "value": "DataExStudy@iseclab.org"}
{"type": "Element::GetAttriubute", "PID": 4636, "docPrincipal": "https://www.stoloto.ru/contacts?int=podval", "3rdPrincipal": "https://mc.yandex.ru/metrika/tag.js", "isInput": "yes", "attr": "value", "value": "DataExStudy@iseclab.org"}
{"type": "Element::GetAttriubute", "PID": 4636, "docPrincipal": "https://www.stoloto.ru/contacts?int=podval", "3rdPrincipal": "https://mc.yandex.ru/metrika/tag.js", "isInput": "yes", "attr": "value", "value": "DataExStudy@iseclab.org"}
{"type": "Element::GetAttriubute", "PID": 4636, "docPrincipal": "https://www.stoloto.ru/contacts?int=podval", "3rdPrincipal": "https://mc.yandex.ru/metrika/tag.js", "isInput": "yes", "attr": "value", "value": "DataExStudy@iseclab.org"}
{"type": "Element::GetAttriubute", "PID": 4636, "docPrincipal": "https://www.stoloto.ru/contacts?int=podval", "3rdPrincipal": "https://mc.yandex.ru/metrika/tag.js", "isInput": "yes", "attr": "value", "value": "DataExStudy@iseclab.org"}
{"type": "Element::GetAttriubute", "PID": 4636, "docPrincipal": "https://www.stoloto.ru/contacts?int=podval", "3rdPrincipal": "https://mc.yandex.ru/metrika/tag.js", "isInput": "yes", "attr": "value", "value": "DataExStudy@iseclab.org"}
{"type": "Element::GetAttriubute", "PID": 4636, "docPrincipal": "https://www.stoloto.ru/contacts?int=podval", "3rdPrincipal": "https://mc.yandex.ru/metrika/tag.js", "isInput": "yes", "attr": "value", "value": "DataExStudy@iseclab.org"}
{"type": "Element::GetAttriubute", "PID": 4636, "docPrincipal": "https://www.stoloto.ru/contacts?int=podval", "3rdPrincipal": "https://mc.yandex.ru/metrika/tag.js", "isInput": "yes", "attr": "value", "value": "DataExStudy@iseclab.org"}
{"type": "Element::GetAttriubute", "PID": 4636, "docPrincipal": "https://www.stoloto.ru/contacts?int=podval", "3rdPrincipal": "https://mc.yandex.ru/metrika/tag.js", "isInput": "yes", "attr": "value", "value": "DataExStudy@iseclab.org"}
{"type": "Element::GetAttriubute", "PID": 4636, "docPrincipal": "https://www.stoloto.ru/contacts?int=podval", "3rdPrincipal": "https://mc.yandex.ru/metrika/tag.js", "isInput": "yes", "attr": "value", "value": "DataExStudy@iseclab.org"}
{"type": "Element::GetAttriubute", "PID": 4636, "docPrincipal": "https://www.stoloto.ru/contacts?int=podval", "3rdPrincipal": "https://mc.yandex.ru/metrika/tag.js", "isInput": "yes", "attr": "value", "value": "DataExStudy@iseclab.org"}
{"type": "Element::GetAttriubute", "PID": 4636, "docPrincipal": "https://www.stoloto.ru/contacts?int=podval", "3rdPrincipal": "https://mc.yandex.ru/metrika/tag.js", "isInput": "yes", "attr": "value", "value": "DataExStudy@iseclab.org"}
{"type": "Element::GetAttriubute", "PID": 4636, "docPrincipal": "https://www.stoloto.ru/contacts?int=podval", "3rdPrincipal": "https://mc.yandex.ru/metrika/tag.js", "isInput": "yes", "attr": "value", "value": "DataExStudy@iseclab.org"}
{"type": "Element::GetAttriubute", "PID": 4636, "docPrincipal": "https://www.stoloto.ru/contacts?int=podval", "3rdPrincipal": "https://mc.yandex.ru/metrika/tag.js", "isInput": "yes", "attr": "value", "value": "DataExStudy@iseclab.org"}
{"type": "Element::GetAttriubute", "PID": 4636, "docPrincipal": "https://www.stoloto.ru/contacts?int=podval", "3rdPrincipal": "https://mc.yandex.ru/metrika/tag.js", "isInput": "yes", "attr": "value", "value": "DataExStudy@iseclab.org"}
{"type": "Element::GetAttriubute", "PID": 4636, "docPrincipal": "https://www.stoloto.ru/contacts?int=podval", "3rdPrincipal": "https://mc.yandex.ru/metrika/tag.js", "isInput": "yes", "attr": "value", "value": "DataExStudy@iseclab.org"}
{"type": "Element::GetAttriubute", "PID": 4636, "docPrincipal": "https://www.stoloto.ru/contacts?int=podval", "3rdPrincipal": "https://mc.yandex.ru/metrika/tag.js", "isInput": "yes", "attr": "value", "value": "DataExStudy@iseclab.org"}
